EESchema Schematic File Version 4
EELAYER 30 0
EELAYER END
$Descr A4 11693 8268
encoding utf-8
Sheet 5 5
Title "IZIRUNF0"
Date "2020-07-06"
Rev "A"
Comp "IZITRON"
Comment1 ""
Comment2 ""
Comment3 ""
Comment4 ""
$EndDescr
$Comp
L izi-connectors:M_2 J1
U 1 1 5EEF272B
P 3265 3710
F 0 "J1" H 3265 5696 59  0000 C CIB
F 1 "M 2" H 3265 5607 39  0000 C CIB
F 2 "MyFootPrint:M.2_PCB" H 3265 3710 39  0001 C CIB
F 3 "" H 3265 3710 39  0001 C CIB
F 4 "2199119-4" H 3265 5534 39  0000 C CIB "REF"
F 5 "571-2199119-4" H 3265 3710 39  0001 C CIB "MOUSER"
F 6 "2377468" H 3265 3710 39  0001 C CIB "FARNELL"
F 7 "NC(only footprint)" H 3265 3710 39  0001 C CIB "ASSAMBLED"
	1    3265 3710
	1    0    0    -1  
$EndComp
$Comp
L power:+5V #PWR037
U 1 1 5EF7E053
P 2125 2060
F 0 "#PWR037" H 2125 1910 59  0001 C CIB
F 1 "+5V" V 2125 2260 39  0000 C CIB
F 2 "" H 2125 2060 39  0001 C CIB
F 3 "" H 2125 2060 39  0001 C CIB
	1    2125 2060
	0    -1   -1   0   
$EndComp
Wire Wire Line
	2865 2010 2195 2010
Wire Wire Line
	2195 2010 2195 2060
Wire Wire Line
	2195 2110 2865 2110
Wire Wire Line
	2125 2060 2195 2060
Connection ~ 2195 2060
Wire Wire Line
	2195 2060 2195 2110
Text HLabel 2195 2210 0    50   Input ~ 0
USART1_TX
Text HLabel 2195 2310 0    50   Output ~ 0
USART1_RX
Wire Wire Line
	2865 2210 2195 2210
Wire Wire Line
	2195 2310 2865 2310
Text HLabel 2195 2410 0    50   Input ~ 0
I2C1_SCL
Text HLabel 2195 2510 0    50   BiDi ~ 0
I2C1_SDA
Wire Wire Line
	2195 2410 2865 2410
Wire Wire Line
	2195 2510 2865 2510
Text HLabel 2195 2610 0    50   Input ~ 0
SPI1_SCK
Wire Wire Line
	2865 2610 2195 2610
Text HLabel 2195 2710 0    50   Output ~ 0
SPI1_MISO
Wire Wire Line
	2195 2710 2865 2710
Text HLabel 2195 2810 0    50   Input ~ 0
SPI1_MOSI
Wire Wire Line
	2195 2810 2865 2810
Text HLabel 2195 2910 0    50   Input ~ 0
SPI1_CS0
Text HLabel 2195 3010 0    50   Input ~ 0
SPI1_CS1
Text HLabel 2195 3110 0    50   Input ~ 0
SPI1_CS2
Wire Wire Line
	2865 2910 2195 2910
Wire Wire Line
	2195 3010 2865 3010
Wire Wire Line
	2865 3110 2195 3110
Text HLabel 2195 3310 0    50   Output ~ 0
ADC0
Text HLabel 2195 3410 0    50   Output ~ 0
ADC1
Wire Wire Line
	2195 3310 2865 3310
Wire Wire Line
	2195 3410 2865 3410
Text HLabel 2190 3510 0    50   Input ~ 0
PWM0
Wire Wire Line
	2190 3510 2865 3510
Text HLabel 2190 3610 0    50   Input ~ 0
PWM1
Text HLabel 2190 3710 0    50   Input ~ 0
PWM2
Text HLabel 2190 3810 0    50   Input ~ 0
PWM3
Text HLabel 2190 3910 0    50   Input ~ 0
PWM4
Text HLabel 2190 4010 0    50   Input ~ 0
PWM5
Wire Wire Line
	2190 3610 2865 3610
Wire Wire Line
	2865 3710 2190 3710
Wire Wire Line
	2190 3810 2865 3810
Wire Wire Line
	2190 3910 2865 3910
Wire Wire Line
	2190 4010 2865 4010
Text HLabel 2190 4110 0    50   BiDi ~ 0
IO0
Text HLabel 2190 4210 0    50   BiDi ~ 0
IO1
Wire Wire Line
	2190 4110 2865 4110
Wire Wire Line
	2865 4210 2190 4210
NoConn ~ 2865 4510
NoConn ~ 2865 4610
NoConn ~ 2865 4710
NoConn ~ 2865 4810
NoConn ~ 2865 4910
NoConn ~ 2865 5010
NoConn ~ 2865 5110
NoConn ~ 2865 5210
NoConn ~ 2865 5310
NoConn ~ 2865 5410
$Comp
L power:GND #PWR038
U 1 1 5F071637
P 4455 2110
F 0 "#PWR038" H 4455 1860 59  0001 C CIB
F 1 "GND" V 4455 1920 39  0000 C CIB
F 2 "" H 4455 2110 39  0001 C CIB
F 3 "" H 4455 2110 39  0001 C CIB
	1    4455 2110
	0    -1   -1   0   
$EndComp
Wire Wire Line
	3665 2060 4330 2060
Wire Wire Line
	4330 2060 4330 2110
Wire Wire Line
	4330 2160 3665 2160
Wire Wire Line
	4455 2110 4330 2110
Connection ~ 4330 2110
Wire Wire Line
	4330 2110 4330 2160
Text HLabel 4330 2260 2    50   Input ~ 0
NRST
Wire Wire Line
	3665 2260 4330 2260
Text HLabel 4330 2360 2    50   Input ~ 0
BOOT
Wire Wire Line
	3665 2360 4330 2360
Text HLabel 4330 2460 2    50   Input ~ 0
WKUP
Wire Wire Line
	3665 2460 4330 2460
NoConn ~ 3665 2760
NoConn ~ 3665 2860
NoConn ~ 3665 2960
NoConn ~ 3665 3060
NoConn ~ 3665 3260
NoConn ~ 3665 3360
NoConn ~ 3665 3460
NoConn ~ 3665 3560
NoConn ~ 3665 3660
NoConn ~ 3665 3760
NoConn ~ 3665 3860
NoConn ~ 3665 3960
NoConn ~ 3665 4060
NoConn ~ 3665 4160
NoConn ~ 3665 4260
NoConn ~ 3665 4360
NoConn ~ 3665 4460
NoConn ~ 3665 4560
NoConn ~ 3665 4760
NoConn ~ 3665 4660
NoConn ~ 3665 4860
NoConn ~ 3665 4960
NoConn ~ 3665 5060
NoConn ~ 3665 5160
NoConn ~ 3665 5260
NoConn ~ 3665 5360
Text Notes 3695 1575 2    79   Italic 16
M2 CONNECTOR
Text Notes 6340 815  2    118  Italic 24
CONNECTORS
$Comp
L izirunf0-rescue:Conn_01x05-conn J2
U 1 1 5EF01E22
P 9325 2300
AR Path="/5EF01E22" Ref="J2"  Part="1" 
AR Path="/5EF6AD0D/5EF01E22" Ref="J2"  Part="1" 
F 0 "J2" H 9330 2735 59  0000 C CIB
F 1 "53261-0571" H 9330 2630 39  0000 C CIB
F 2 "SamacSys_Parts:532610571TR250" H 9325 2300 50  0001 C CNN
F 3 "~" H 9325 2300 50  0001 C CNN
F 4 "53261-0571" H 9325 2300 50  0001 C CNN "REF"
F 5 "538-53261-0571" H 9325 2300 50  0001 C CNN "MOUSER"
F 6 "1125360" H 9325 2300 50  0001 C CNN "FARNELL"
F 7 "C392176" H 9325 2300 50  0001 C CNN "LCSC"
	1    9325 2300
	1    0    0    -1  
$EndComp
Text Notes 9255 1570 2    79   Italic 16
SWD DEBUG
$Comp
L power:+3V3 #PWR039
U 1 1 5F0389F3
P 8685 2100
F 0 "#PWR039" H 8685 1950 59  0001 C CIB
F 1 "+3V3" V 8685 2335 39  0000 C CIB
F 2 "" H 8685 2100 39  0001 C CIB
F 3 "" H 8685 2100 39  0001 C CIB
	1    8685 2100
	0    -1   -1   0   
$EndComp
$Comp
L power:GND #PWR040
U 1 1 5EF147E3
P 8685 2500
F 0 "#PWR040" H 8685 2250 59  0001 C CIB
F 1 "GND" V 8685 2310 39  0000 C CIB
F 2 "" H 8685 2500 39  0001 C CIB
F 3 "" H 8685 2500 39  0001 C CIB
	1    8685 2500
	0    1    1    0   
$EndComp
Wire Wire Line
	9125 2500 8685 2500
Wire Wire Line
	8685 2100 9125 2100
Text HLabel 8680 2200 0    50   Output ~ 0
SWD_SWCLK
Wire Wire Line
	8680 2200 9125 2200
Text HLabel 8680 2300 0    50   BiDi ~ 0
SWD_SWDIO
Wire Wire Line
	8680 2300 9125 2300
Wire Wire Line
	9125 2400 8680 2400
Text HLabel 8680 2400 0    50   Input ~ 0
NRST
$Comp
L Mechanical:MountingHole H1
U 1 1 5F0365B5
P 6150 1915
F 0 "H1" H 6250 1961 50  0000 L CNN
F 1 "MountingHole" H 6250 1870 50  0000 L CNN
F 2 "Mounting_Holes:MountingHole_2.7mm_M2.5_Pad_Via" H 6150 1915 50  0001 C CNN
F 3 "~" H 6150 1915 50  0001 C CNN
	1    6150 1915
	1    0    0    -1  
$EndComp
Text Notes 6650 1550 2    79   Italic 16
Mounting Hole
NoConn ~ 3665 2560
NoConn ~ 3665 2660
Wire Wire Line
	2190 4310 2865 4310
Wire Wire Line
	2865 4410 2190 4410
Text HLabel 2190 4310 0    50   BiDi ~ 0
IO2
Text HLabel 2190 4410 0    50   BiDi ~ 0
IO3
$EndSCHEMATC
