Reference; Quantity; Value; Footprint; Manufacture Ref; FARNELL; LCSC
BT1 BT2 ;2;BT RESET;Button_Switch_SMD:SW_SPST_B3U-1000P;B3U-1000P;;
C1 C12 C13 C14 C15 C16 C17 C18 C2 ;9;100n;Capacitor_SMD:C_0603_1608Metric;;;
C10 C50 ;2;1uF;Capacitor_SMD:C_0603_1608Metric;GRM21BR61C106KE15K;;
C19 C20 ;2;1u;Capacitor_SMD:C_0603_1608Metric;;;
C3 C4 ;2;18pF;Capacitor_SMD:C_0603_1608Metric;;;
C51 ;1;4.7uF;Capacitor_SMD:C_0603_1608Metric;GRM188R61C475KAAJD;;
C5 C6 C7 C8 ;4;100nF;Capacitor_SMD:C_0603_1608Metric;MC0402B104K160CT;;
C11 C9 ;2;10uF;Capacitor_SMD:C_0603_1608Metric;GRM21BR61C106KE15K;;
D1 D2 D4 ;3;GREEN 2mA;LED_SMD:LED_0805_2012Metric;KPT-2012ZGC;2217981;C598372
D3 ;1;RED 2mA;LED_SMD:LED_0805_2012Metric;KPT-2012ZGC;2217981;C598372
FID1 FID2 FID3 FID4 FID5 FID6 ;6;Fiducial;Fiducial:Fiducial_0.5mm_Mask1.5mm;;;
H1 ;1;MountingHole;MountingHole:MountingHole_2.7mm_M2.5_Pad_Via;;;
J1 ;1;M 2;MyFootPrint:M.2_PCB;2199119-4;2377468;
J2 ;1;53261-0571;SamacSys_Parts:532610571TR250;53261-0571;1125360;C392176
L1 ;1;FCB;Inductor_SMD:L_0603_1608Metric;BLM18PG121SN1D;;C14709
R1 R3 ;2;10K;Resistor_SMD:R_0603_1608Metric;;;
R10 ;1;1k;Resistor_SMD:R_0603_1608Metric;;;
R2 R9 ;2;27;Resistor_SMD:R_0603_1608Metric;;;
R5(DNP) R6 R7 ;3;10k;Resistor_SMD:R_0603_1608Metric;;;
R28 R29 R4 R8 ;4;750;Resistor_SMD:R_0603_1608Metric;;;
U1 ;1;RP2040;RP2040_minimal:RP2040-QFN-56;;;
U2 ;1;W25X40CLUXIG;MyFootPrint:USON8;W25X40CLUXIG TR;;C401661
U3 ;1;24CW1280T-I_OT;SamacSys_Parts:SOT95P280X145-5N;24CW1280T-I/OT;;24CW1280T-I/OT
U4 ;1;NCP708MU330TAG;SamacSys_Parts:SON95P300X300X55-7N;NCP708MU330TAG;;
U8 ;1;STMPS21xx;Package_TO_SOT_SMD:TSOT-23-5;;;
Y2 ;1;12MHz;MyFootPrint:OSC_4P_2x1_6;ABM10-167-12.000MHZ-T3;;C127895
