EESchema Schematic File Version 4
EELAYER 30 0
EELAYER END
$Descr A4 11693 8268
encoding utf-8
Sheet 2 5
Title "IZIRUNF0"
Date "2020-07-06"
Rev "A"
Comp "IZITRON"
Comment1 ""
Comment2 ""
Comment3 ""
Comment4 ""
$EndDescr
Connection ~ 7145 1435
Connection ~ 7520 1885
Connection ~ 6125 6250
Connection ~ 6325 1435
Connection ~ 7870 1435
Connection ~ 7870 1885
Connection ~ 7520 1435
Connection ~ 7145 1885
Connection ~ 6770 1435
Connection ~ 6025 6250
Wire Wire Line
	7145 1610 7145 1435
Wire Wire Line
	7145 1435 7520 1435
Wire Wire Line
	8245 1435 8245 1610
Wire Wire Line
	6770 1810 6770 1885
Wire Wire Line
	6770 1885 7145 1885
Wire Wire Line
	6770 1610 6770 1435
Wire Wire Line
	6325 1840 6325 1435
Wire Wire Line
	7145 1885 7520 1885
Wire Wire Line
	5925 6250 6025 6250
Wire Wire Line
	6770 1435 7145 1435
Wire Wire Line
	7520 1960 7520 1885
Wire Wire Line
	7520 1885 7870 1885
Wire Wire Line
	7870 1885 8245 1885
Wire Wire Line
	6325 1435 6770 1435
Wire Wire Line
	8245 1885 8245 1810
Wire Wire Line
	7870 1435 8245 1435
Wire Wire Line
	7145 1810 7145 1885
Wire Wire Line
	7520 1810 7520 1885
Wire Wire Line
	7520 1610 7520 1435
Wire Wire Line
	7870 1810 7870 1885
Wire Wire Line
	7870 1610 7870 1435
Wire Wire Line
	7520 1435 7870 1435
$Comp
L device:C_Small C12
U 1 1 5C90C5D8
P 6770 1710
F 0 "C12" H 6870 1790 59  0000 C CIB
F 1 "100nF" H 6885 1635 39  0000 C CIB
F 2 "Capacitor_SMD:C_0603_1608Metric" H 6770 1710 39  0001 C CIB
F 3 "~" H 6770 1710 39  0001 C CIB
	1    6770 1710
	1    0    0    -1  
$EndComp
$Comp
L device:C_Small C13
U 1 1 5C90C682
P 7145 1710
F 0 "C13" H 7250 1790 59  0000 C CIB
F 1 "100nF" H 7260 1635 39  0000 C CIB
F 2 "Capacitor_SMD:C_0603_1608Metric" H 7145 1710 39  0001 C CIB
F 3 "~" H 7145 1710 39  0001 C CIB
	1    7145 1710
	1    0    0    -1  
$EndComp
$Comp
L device:C_Small C15
U 1 1 5C90C6CE
P 7870 1710
F 0 "C15" H 7975 1795 59  0000 C CIB
F 1 "100nF" H 7985 1635 39  0000 C CIB
F 2 "Capacitor_SMD:C_0603_1608Metric" H 7870 1710 39  0001 C CIB
F 3 "~" H 7870 1710 39  0001 C CIB
	1    7870 1710
	1    0    0    -1  
$EndComp
$Comp
L device:C_Small C16
U 1 1 5C90C6F9
P 8245 1710
F 0 "C16" H 8350 1790 59  0000 C CIB
F 1 "100nF" H 8365 1635 39  0000 C CIB
F 2 "Capacitor_SMD:C_0603_1608Metric" H 8245 1710 39  0001 C CIB
F 3 "~" H 8245 1710 39  0001 C CIB
	1    8245 1710
	1    0    0    -1  
$EndComp
$Comp
L device:Ferrite_Bead_Small L1
U 1 1 5C90C759
P 6325 1940
F 0 "L1" H 6460 2005 59  0000 C CIB
F 1 "FCB" H 6460 1850 39  0000 C CIB
F 2 "Inductor_SMD:L_0603_1608Metric" V 6255 1940 39  0001 C CIB
F 3 "~" H 6325 1940 39  0001 C CIB
F 4 "81-BLM18PG121SN1D" H 6325 1940 39  0001 C CIB "MOUSER"
F 5 "C14709" H 6325 1940 39  0001 C CIB "LCSC"
F 6 "BLM18PG121SN1D" H 6620 1770 39  0000 C CIB "FAB REF"
	1    6325 1940
	1    0    0    -1  
$EndComp
$Comp
L device:C_Small C14
U 1 1 5C90C69E
P 7520 1710
F 0 "C14" H 7630 1790 59  0000 C CIB
F 1 "100nF" H 7630 1635 39  0000 C CIB
F 2 "Capacitor_SMD:C_0603_1608Metric" H 7520 1710 39  0001 C CIB
F 3 "~" H 7520 1710 39  0001 C CIB
	1    7520 1710
	1    0    0    -1  
$EndComp
$Comp
L button_switch:B_Push BT1
U 1 1 5CC80DF5
P 1250 2890
F 0 "BT1" H 1250 3105 59  0000 C CIB
F 1 "BT RESET" H 1250 2820 39  0000 C CIB
F 2 "Button_Switch_SMD:SW_SPST_B3U-1000P" H 1250 2890 39  0001 C CIB
F 3 "" H 1250 2890 39  0001 C CIB
F 4 "B3U-1000P" H 1250 2735 39  0000 C CIB "FAB REF"
	1    1250 2890
	1    0    0    -1  
$EndComp
$Comp
L device:R_Small R1
U 1 1 5CC80C9E
P 1585 2690
F 0 "R1" H 1705 2690 59  0000 C CIB
F 1 "10K" V 1585 2690 39  0000 C CIB
F 2 "Resistor_SMD:R_0603_1608Metric" H 1585 2690 39  0001 C CIB
F 3 "~" H 1585 2690 39  0001 C CIB
	1    1585 2690
	1    0    0    -1  
$EndComp
$Comp
L power:PWR_FLAG #FLG01
U 1 1 5F000628
P 6420 2325
F 0 "#FLG01" H 6420 2400 59  0001 C CIB
F 1 "PWR_FLAG" V 6425 2590 39  0000 C CIB
F 2 "" H 6420 2325 39  0001 C CIB
F 3 "~" H 6420 2325 39  0001 C CIB
	1    6420 2325
	0    1    1    0   
$EndComp
$Comp
L power:+3.3V #PWR015
U 1 1 5C912AEA
P 5925 1310
F 0 "#PWR015" H 5925 1160 59  0001 C CIB
F 1 "+3.3V" H 5940 1483 39  0000 C CIB
F 2 "" H 5925 1310 39  0001 C CIB
F 3 "" H 5925 1310 39  0001 C CIB
	1    5925 1310
	1    0    0    -1  
$EndComp
$Comp
L power:GND #PWR017
U 1 1 5C90CE2F
P 7520 1960
F 0 "#PWR017" H 7520 1710 59  0001 C CIB
F 1 "GND" H 7525 1787 39  0000 C CIB
F 2 "" H 7520 1960 39  0001 C CIB
F 3 "" H 7520 1960 39  0001 C CIB
	1    7520 1960
	1    0    0    -1  
$EndComp
$Comp
L power:GND #PWR016
U 1 1 5C90DEA4
P 6075 6465
F 0 "#PWR016" H 6075 6215 59  0001 C CIB
F 1 "GND" H 6080 6292 39  0000 C CIB
F 2 "" H 6075 6465 39  0001 C CIB
F 3 "" H 6075 6465 39  0001 C CIB
	1    6075 6465
	1    0    0    -1  
$EndComp
Wire Wire Line
	6325 2325 6325 2040
Wire Wire Line
	6420 2325 6325 2325
Wire Wire Line
	6125 6250 6225 6250
Text Notes 6215 755  2    118  Italic 24
MCU
Wire Wire Line
	6025 6250 6075 6250
Wire Wire Line
	6075 6465 6075 6250
Connection ~ 6075 6250
Wire Wire Line
	6075 6250 6125 6250
Wire Wire Line
	5925 5890 5925 6250
Wire Wire Line
	6225 6250 6225 5890
Wire Wire Line
	6025 5890 6025 6250
Wire Wire Line
	6125 5890 6125 6250
Wire Wire Line
	5925 1435 5925 2490
Connection ~ 5925 1435
Wire Wire Line
	5925 1435 6025 1435
Wire Wire Line
	5925 1310 5925 1435
Wire Wire Line
	6125 1435 6125 2490
Connection ~ 6125 1435
Wire Wire Line
	6125 1435 6225 1435
Wire Wire Line
	6225 1435 6225 2490
Connection ~ 6225 1435
Wire Wire Line
	6225 1435 6325 1435
Wire Wire Line
	6325 2325 6325 2490
Connection ~ 6325 2325
Wire Wire Line
	805  1420 805  1575
$Comp
L power:GND #PWR?
U 1 1 5C6B7857
P 1165 1625
AR Path="/5C061F84/5C6B7857" Ref="#PWR?"  Part="1" 
AR Path="/5C0272AF/5C6B7857" Ref="#PWR?"  Part="1" 
AR Path="/5EB5BEF3/5C6B7857" Ref="#PWR05"  Part="1" 
F 0 "#PWR05" H 1165 1375 59  0001 C CIB
F 1 "GND" H 1170 1452 39  0000 C CIB
F 2 "" H 1165 1625 39  0001 C CIB
F 3 "" H 1165 1625 39  0001 C CIB
	1    1165 1625
	-1   0    0    -1  
$EndComp
$Comp
L device:C_Small C?
U 1 1 5C6420D9
P 2100 1330
AR Path="/5C061F84/5C6420D9" Ref="C?"  Part="1" 
AR Path="/5C0272AF/5C6420D9" Ref="C?"  Part="1" 
AR Path="/5EB5BEF3/5C6420D9" Ref="C3"  Part="1" 
F 0 "C3" H 1990 1255 59  0000 C CIB
F 1 "18pF" H 2005 1405 39  0000 C CIB
F 2 "Capacitor_SMD:C_0603_1608Metric" H 2100 1330 39  0001 C CIB
F 3 "~" H 2100 1330 39  0001 C CIB
	1    2100 1330
	-1   0    0    1   
$EndComp
Wire Wire Line
	805  965  805  1220
Text Label 3095 3290 2    50   ~ 0
OSC_IN
Wire Wire Line
	3095 3290 3225 3290
Text Label 3095 3390 2    50   ~ 0
OSC_OUT
Wire Wire Line
	3095 3390 3225 3390
Text Label 3095 3690 2    50   ~ 0
OSC32_IN
Text Label 3095 3790 2    50   ~ 0
OSC32_OUT
Wire Wire Line
	3225 3690 3095 3690
Wire Wire Line
	3225 3790 3095 3790
$Comp
L device:R_Small R2
U 1 1 5EBA85CC
P 2225 3255
F 0 "R2" H 2355 3255 59  0000 C CIB
F 1 "10K" V 2225 3255 39  0000 C CIB
F 2 "Resistor_SMD:R_0603_1608Metric" H 2225 3255 39  0001 C CIB
F 3 "~" H 2225 3255 39  0001 C CIB
	1    2225 3255
	1    0    0    -1  
$EndComp
$Comp
L power:GND #PWR010
U 1 1 5EBAD49D
P 2225 3355
F 0 "#PWR010" H 2225 3105 59  0001 C CIB
F 1 "GND" H 2225 3205 39  0000 C CIB
F 2 "" H 2225 3355 39  0001 C CIB
F 3 "" H 2225 3355 39  0001 C CIB
	1    2225 3355
	1    0    0    -1  
$EndComp
Wire Wire Line
	3225 3090 2225 3090
Wire Wire Line
	2225 3090 2225 3155
Text HLabel 2135 3090 0    50   Input ~ 0
BOOT
Wire Wire Line
	2225 3090 2135 3090
Connection ~ 2225 3090
Wire Notes Line width 20 style solid
	475  1870 3150 1870
Wire Notes Line width 20 style solid
	3150 1870 3150 475 
$Comp
L power:GND #PWR?
U 1 1 5F08EF00
P 10605 4790
AR Path="/5F08EF00" Ref="#PWR?"  Part="1" 
AR Path="/5C8F350B/5F08EF00" Ref="#PWR?"  Part="1" 
AR Path="/5C90C3D3/5F08EF00" Ref="#PWR?"  Part="1" 
AR Path="/5EB5BEF3/5F08EF00" Ref="#PWR018"  Part="1" 
F 0 "#PWR018" H 10605 4540 59  0001 C CIB
F 1 "GND" V 10600 4610 39  0000 C CIB
F 2 "" H 10605 4790 39  0001 C CIB
F 3 "" H 10605 4790 39  0001 C CIB
	1    10605 4790
	0    -1   1    0   
$EndComp
$Comp
L device:R_Small R?
U 1 1 5F08EEFE
P 10160 4790
AR Path="/5F08EEFE" Ref="R?"  Part="1" 
AR Path="/5C8F350B/5F08EEFE" Ref="R?"  Part="1" 
AR Path="/5C90C3D3/5F08EEFE" Ref="R?"  Part="1" 
AR Path="/5EB5BEF3/5F08EEFE" Ref="R4"  Part="1" 
F 0 "R4" V 10245 4790 59  0000 C CIB
F 1 "750" V 10160 4785 39  0000 C CIB
F 2 "Resistor_SMD:R_0603_1608Metric" H 10160 4790 39  0001 C CIB
F 3 "~" H 10160 4790 39  0001 C CIB
	1    10160 4790
	0    -1   1    0   
$EndComp
Wire Wire Line
	1585 2550 1585 2590
$Comp
L power:+3.3V #PWR06
U 1 1 5CC80D26
P 1585 2550
F 0 "#PWR06" H 1585 2400 59  0001 C CIB
F 1 "+3.3V" H 1600 2723 39  0000 C CIB
F 2 "" H 1585 2550 39  0001 C CIB
F 3 "" H 1585 2550 39  0001 C CIB
	1    1585 2550
	1    0    0    -1  
$EndComp
Wire Wire Line
	1585 2790 1585 2890
Wire Wire Line
	1585 2890 2230 2890
Wire Wire Line
	1500 2890 1585 2890
Connection ~ 1585 2890
$Comp
L power:GND #PWR?
U 1 1 5EF19A6D
P 1000 2890
AR Path="/5EF19A6D" Ref="#PWR?"  Part="1" 
AR Path="/5C8F350B/5EF19A6D" Ref="#PWR?"  Part="1" 
AR Path="/5C90C3D3/5EF19A6D" Ref="#PWR?"  Part="1" 
AR Path="/5EB5BEF3/5EF19A6D" Ref="#PWR03"  Part="1" 
F 0 "#PWR03" H 1000 2640 59  0001 C CIB
F 1 "GND" V 1000 2720 39  0000 C CIB
F 2 "" H 1000 2890 39  0001 C CIB
F 3 "" H 1000 2890 39  0001 C CIB
	1    1000 2890
	0    1    -1   0   
$EndComp
$Comp
L power:GND #PWR?
U 1 1 5EF1CEF7
P 1010 4190
AR Path="/5EF1CEF7" Ref="#PWR?"  Part="1" 
AR Path="/5C8F350B/5EF1CEF7" Ref="#PWR?"  Part="1" 
AR Path="/5C90C3D3/5EF1CEF7" Ref="#PWR?"  Part="1" 
AR Path="/5EB5BEF3/5EF1CEF7" Ref="#PWR04"  Part="1" 
F 0 "#PWR04" H 1010 3940 59  0001 C CIB
F 1 "GND" V 1005 4015 39  0000 C CIB
F 2 "" H 1010 4190 39  0001 C CIB
F 3 "" H 1010 4190 39  0001 C CIB
	1    1010 4190
	0    1    -1   0   
$EndComp
$Comp
L device:R_Small R3
U 1 1 5EF1CF05
P 1595 3990
F 0 "R3" H 1715 4025 59  0000 C CIB
F 1 "10K" V 1595 3990 39  0000 C CIB
F 2 "Resistor_SMD:R_0603_1608Metric" H 1595 3990 39  0001 C CIB
F 3 "~" H 1595 3990 39  0001 C CIB
	1    1595 3990
	1    0    0    -1  
$EndComp
$Comp
L button_switch:B_Push BT2
U 1 1 5EF1CF16
P 1260 4190
F 0 "BT2" H 1260 4400 59  0000 C CIB
F 1 "BT USER" H 1260 4115 39  0000 C CIB
F 2 "Button_Switch_SMD:SW_SPST_B3U-1000P" H 1260 4190 39  0001 C CIB
F 3 "" H 1260 4190 39  0001 C CIB
F 4 "B3U-1000P" H 1260 4025 39  0000 C CIB "FAB REF"
	1    1260 4190
	1    0    0    -1  
$EndComp
$Comp
L power:+3.3V #PWR08
U 1 1 5EF1CF27
P 1595 3855
F 0 "#PWR08" H 1595 3705 59  0001 C CIB
F 1 "+3.3V" H 1610 4028 39  0000 C CIB
F 2 "" H 1595 3855 39  0001 C CIB
F 3 "" H 1595 3855 39  0001 C CIB
	1    1595 3855
	1    0    0    -1  
$EndComp
Wire Wire Line
	1595 4090 1595 4190
Wire Wire Line
	1595 3855 1595 3890
Wire Wire Line
	1510 4190 1595 4190
Wire Wire Line
	3225 4190 1595 4190
Connection ~ 1595 4190
$Comp
L izirunf0-rescue:STM32F070CBTx-stm32 U1
U 1 1 5C90C55C
P 6125 4190
F 0 "U1" H 3385 5885 59  0000 C CIB
F 1 "STM32F070CBTx" H 8695 5880 39  0000 C CIB
F 2 "Housings_QFP:LQFP-48_7x7mm_Pitch0.5mm" H 8925 5765 39  0001 C CIB
F 3 "http://www.st.com/st-web-ui/static/active/en/resource/technical/document/datasheet/DM00141386.pdf" H 6125 4190 39  0001 C CIB
F 4 "2750627" H 6125 4190 39  0001 C CIB "FARNELL"
F 5 "C74909" H 6125 4190 39  0001 C CIB "LCSC"
F 6 "STM32F030CCTx" H 8630 2515 39  0000 C CIB "FAB REF"
	1    6125 4190
	1    0    0    -1  
$EndComp
Connection ~ 1165 1575
Wire Wire Line
	805  1575 1165 1575
Wire Wire Line
	1165 1625 1165 1575
Wire Wire Line
	1515 965  1515 1225
Wire Wire Line
	1515 1575 1515 1425
Wire Wire Line
	1265 965  1515 965 
Wire Wire Line
	1165 1575 1515 1575
$Comp
L device:C_Small C?
U 1 1 5C6527E4
P 1515 1325
AR Path="/5C061F84/5C6527E4" Ref="C?"  Part="1" 
AR Path="/5C0272AF/5C6527E4" Ref="C?"  Part="1" 
AR Path="/5EB5BEF3/5C6527E4" Ref="C2"  Part="1" 
F 0 "C2" H 1625 1250 59  0000 C CIB
F 1 "6pF" H 1595 1390 39  0000 C CIB
F 2 "Capacitor_SMD:C_0603_1608Metric" H 1515 1325 39  0001 C CIB
F 3 "~" H 1515 1325 39  0001 C CIB
	1    1515 1325
	1    0    0    1   
$EndComp
Wire Wire Line
	805  965  1065 965 
$Comp
L device:Crystal_Small Y1
U 1 1 5C65233E
P 1165 965
F 0 "Y1" H 1165 765 59  0000 C CIB
F 1 "32.786Khz" H 1165 860 39  0000 C CIB
F 2 "MyFootPrint:OSCI_3_2_X1_5" H 1165 965 39  0001 C CIB
F 3 "~" H 1165 965 39  0001 C CIB
F 4 "ABS07-32.768KHZ-T" H 1165 1095 39  0000 C CIB "FAB REF"
F 5 "815-ABS07-32.768KHZT" H 1165 965 39  0001 C CIB "MOUSER"
F 6 "C130253" H 1165 965 39  0001 C CIB "LCSC"
	1    1165 965 
	1    0    0    1   
$EndComp
Wire Wire Line
	2805 4990 3225 4990
Wire Wire Line
	2805 5090 3225 5090
Text HLabel 2155 2800 0    50   Input ~ 0
NRST
Wire Wire Line
	2155 2800 2230 2800
Wire Wire Line
	2230 2800 2230 2890
Connection ~ 2230 2890
Wire Wire Line
	2230 2890 3225 2890
Text HLabel 9295 3990 2    50   Input ~ 0
PA0_WKUP
Wire Wire Line
	9025 3990 9295 3990
Text HLabel 9295 5090 2    50   Output ~ 0
PA11_I2C2_SCL
Text HLabel 9295 5190 2    50   BiDi ~ 0
PA12_I2C2_SDA
Wire Wire Line
	9025 5090 9295 5090
Text HLabel 2805 5290 0    50   Output ~ 0
PB13_SPI2_SCK
Text HLabel 2805 5390 0    50   Input ~ 0
PB14_SPI2_MISO
Text HLabel 2805 5490 0    50   Output ~ 0
PB15_SPI2_MOSI
Wire Wire Line
	2805 5390 3225 5390
Wire Wire Line
	3225 5490 2805 5490
Text HLabel 2805 5190 0    50   Output ~ 0
PB12_SPI2_CS
Wire Wire Line
	2805 5190 3225 5190
Wire Wire Line
	9025 4790 10060 4790
Wire Wire Line
	9025 5190 9295 5190
Wire Wire Line
	10260 4790 10355 4790
Wire Wire Line
	10555 4790 10605 4790
$Comp
L device:LED_Small D?
U 1 1 5F08EEFF
P 10455 4790
AR Path="/5C8F350B/5F08EEFF" Ref="D?"  Part="1" 
AR Path="/5C90C3D3/5F08EEFF" Ref="D?"  Part="1" 
AR Path="/5EB5BEF3/5F08EEFF" Ref="D1"  Part="1" 
F 0 "D1" H 10450 4910 59  0000 C CIB
F 1 "GREEN 2mA" H 10455 4710 39  0000 C CIB
F 2 "LED_SMD:LED_0805_2012Metric" V 10455 4790 39  0001 C CIB
F 3 "~" V 10455 4790 39  0001 C CIB
F 4 "2217981" H 10455 4790 39  0001 C CIB "FARNELL"
F 5 "KPT-2012ZGC" H 10460 4640 39  0000 C CIB "FAB REF"
F 6 "C598372" H 10455 4790 39  0001 C CIB "LCSC"
	1    10455 4790
	-1   0    0    1   
$EndComp
Text HLabel 9295 4890 2    50   Output ~ 0
PA9_UART1_TX
Wire Wire Line
	9025 4890 9295 4890
Text HLabel 9295 4990 2    50   Input ~ 0
PA10_UART1_RX
Wire Wire Line
	9025 4990 9295 4990
Text HLabel 2805 4590 0    50   Output ~ 0
PB6_I2C1_SCL
Wire Wire Line
	3225 4590 2805 4590
Text HLabel 2805 4690 0    50   BiDi ~ 0
PB7_I2C1_SDA
Wire Wire Line
	2805 4690 3225 4690
Text HLabel 9295 4490 2    50   Output ~ 0
PA5_SPI1_SCK
Wire Wire Line
	9025 4490 9295 4490
Text HLabel 9295 4590 2    50   Input ~ 0
PA6_SPI1_MISO
Text HLabel 9295 4690 2    50   Output ~ 0
PA7_SPI1_MOSI
Wire Wire Line
	9025 4590 9295 4590
Wire Wire Line
	9025 4690 9295 4690
Text HLabel 2810 3590 0    50   Output ~ 0
PC13_SPI1_CS0
Wire Wire Line
	3225 3590 2810 3590
Text HLabel 9295 5490 2    50   Output ~ 0
PA15_SPI1_CS1
Wire Wire Line
	9025 5490 9295 5490
Text HLabel 2805 4290 0    50   Output ~ 0
PB3_SPI1_CS2
Wire Wire Line
	2805 4290 3225 4290
Text HLabel 9295 4090 2    50   Input ~ 0
PA1_ADC_IN1
Text HLabel 9295 4190 2    50   Input ~ 0
PA2_ADC_IN2
Wire Wire Line
	9025 4090 9295 4090
Wire Wire Line
	9295 4190 9025 4190
Text HLabel 2805 3990 0    50   Output ~ 0
PB0_TIM3_CH3
Wire Wire Line
	2805 3990 3225 3990
Text HLabel 2805 4090 0    50   Output ~ 0
PB1_TIM3_CH4
Wire Wire Line
	2805 4090 3225 4090
Text HLabel 2805 4390 0    50   Output ~ 0
PB4_TIM3_CH1
Text HLabel 2805 4490 0    50   Output ~ 0
PB5_TIM3_CH2
Wire Wire Line
	2805 4390 3225 4390
Wire Wire Line
	3225 4490 2805 4490
$Comp
L device:C_Small C5
U 1 1 5EF3A576
P 1585 3075
F 0 "C5" H 1700 3160 59  0000 C CIB
F 1 "100nF" H 1715 3000 39  0000 C CIB
F 2 "Capacitor_SMD:C_0603_1608Metric" H 1585 3075 39  0001 C CIB
F 3 "~" H 1585 3075 39  0001 C CIB
	1    1585 3075
	1    0    0    -1  
$EndComp
$Comp
L power:GND #PWR07
U 1 1 5EF4DE03
P 1585 3200
F 0 "#PWR07" H 1585 2950 59  0001 C CIB
F 1 "GND" H 1585 3050 39  0000 C CIB
F 2 "" H 1585 3200 39  0001 C CIB
F 3 "" H 1585 3200 39  0001 C CIB
	1    1585 3200
	1    0    0    -1  
$EndComp
Wire Wire Line
	1585 3175 1585 3200
Wire Wire Line
	1595 4470 1595 4495
$Comp
L power:GND #PWR09
U 1 1 5EF51B8C
P 1595 4495
F 0 "#PWR09" H 1595 4245 59  0001 C CIB
F 1 "GND" H 1595 4345 39  0000 C CIB
F 2 "" H 1595 4495 39  0001 C CIB
F 3 "" H 1595 4495 39  0001 C CIB
	1    1595 4495
	1    0    0    -1  
$EndComp
$Comp
L device:C_Small C6
U 1 1 5EF51B9A
P 1595 4370
F 0 "C6" H 1710 4455 59  0000 C CIB
F 1 "100nF" H 1720 4295 39  0000 C CIB
F 2 "Capacitor_SMD:C_0603_1608Metric" H 1595 4370 39  0001 C CIB
F 3 "~" H 1595 4370 39  0001 C CIB
	1    1595 4370
	1    0    0    -1  
$EndComp
Wire Wire Line
	1595 4270 1595 4190
Text HLabel 2805 4790 0    50   Output ~ 0
PB8_TIM16_CH1
Text HLabel 2805 4890 0    50   Output ~ 0
PB9_TIM17_CH1
Wire Wire Line
	3225 4790 2805 4790
Wire Wire Line
	3225 4890 2805 4890
Text HLabel 9295 4290 2    50   BiDi ~ 0
PA3_IO0
Text HLabel 9295 5290 2    50   BiDi ~ 0
PA13_SYS_SWDIO
Text HLabel 9295 5390 2    50   Input ~ 0
PA14_SYS_SWCLK
Wire Wire Line
	9025 5290 9295 5290
Wire Wire Line
	9295 5390 9025 5390
Text HLabel 9300 4390 2    50   BiDi ~ 0
PA4_IO1
Wire Wire Line
	9025 4290 9295 4290
Wire Wire Line
	9300 4390 9025 4390
Text Notes 1950 670  2    79   Italic 16
OSC
$Comp
L device:C_Small C?
U 1 1 5C65286C
P 805 1320
AR Path="/5C061F84/5C65286C" Ref="C?"  Part="1" 
AR Path="/5C0272AF/5C65286C" Ref="C?"  Part="1" 
AR Path="/5EB5BEF3/5C65286C" Ref="C1"  Part="1" 
F 0 "C1" H 915 1245 59  0000 C CIB
F 1 "6pF" H 880 1390 39  0000 C CIB
F 2 "Capacitor_SMD:C_0603_1608Metric" H 805 1320 39  0001 C CIB
F 3 "~" H 805 1320 39  0001 C CIB
	1    805  1320
	1    0    0    1   
$EndComp
Text Label 805  965  1    50   ~ 0
OSC32_IN
Text Label 1515 965  1    50   ~ 0
OSC32_OUT
Wire Wire Line
	2855 1230 2855 970 
Wire Wire Line
	2855 970  2590 970 
Wire Wire Line
	2100 970  2100 1230
Wire Wire Line
	2390 970  2100 970 
Wire Wire Line
	2100 1430 2100 1580
Wire Wire Line
	2855 1580 2490 1580
Wire Wire Line
	2855 1430 2855 1580
Wire Wire Line
	2490 1580 2100 1580
Wire Wire Line
	2490 1630 2490 1580
NoConn ~ 2490 1070
Connection ~ 2490 1580
$Comp
L device:Crystal_GND2_Small Y2
U 1 1 5EB75C75
P 2490 970
F 0 "Y2" H 2490 1175 59  0000 C CIB
F 1 "24MHz" H 2490 1075 39  0000 C CIB
F 2 "MyFootPrint:OSC_4P_2x1_6" H 2490 970 39  0001 C CIB
F 3 "~" H 2490 970 39  0001 C CIB
F 4 "XRCGB24M000F3M00R0" H 2500 810 39  0000 C CIB "FAB REF"
F 5 "81-XRCGB24M000F3G0R0" H 2490 970 39  0001 C CIB "MOUSER"
F 6 "C127895" H 2490 970 39  0001 C CIB "LCSC"
	1    2490 970 
	1    0    0    -1  
$EndComp
$Comp
L power:GND #PWR?
U 1 1 5C6420E0
P 2490 1630
AR Path="/5C061F84/5C6420E0" Ref="#PWR?"  Part="1" 
AR Path="/5C0272AF/5C6420E0" Ref="#PWR?"  Part="1" 
AR Path="/5EB5BEF3/5C6420E0" Ref="#PWR011"  Part="1" 
F 0 "#PWR011" H 2490 1380 59  0001 C CIB
F 1 "GND" H 2495 1457 39  0000 C CIB
F 2 "" H 2490 1630 39  0001 C CIB
F 3 "" H 2490 1630 39  0001 C CIB
	1    2490 1630
	-1   0    0    -1  
$EndComp
$Comp
L device:C_Small C?
U 1 1 5C6420D2
P 2855 1330
AR Path="/5C061F84/5C6420D2" Ref="C?"  Part="1" 
AR Path="/5C0272AF/5C6420D2" Ref="C?"  Part="1" 
AR Path="/5EB5BEF3/5C6420D2" Ref="C4"  Part="1" 
F 0 "C4" H 2735 1250 59  0000 C CIB
F 1 "18pF" H 2755 1410 39  0000 C CIB
F 2 "Capacitor_SMD:C_0603_1608Metric" H 2855 1330 39  0001 C CIB
F 3 "~" H 2855 1330 39  0001 C CIB
	1    2855 1330
	-1   0    0    1   
$EndComp
Text Label 2100 970  1    50   ~ 0
OSC_IN
Text Label 2855 970  1    50   ~ 0
OSC_OUT
Wire Wire Line
	1585 2975 1585 2890
Wire Wire Line
	6025 2490 6025 1435
Connection ~ 6025 1435
Wire Wire Line
	6025 1435 6125 1435
Text HLabel 2805 4990 0    50   BiDi ~ 0
PB10_IO2
Text HLabel 2805 5090 0    50   BiDi ~ 0
PB11_IO3
Wire Wire Line
	2805 5290 3225 5290
$EndSCHEMATC
