EESchema Schematic File Version 4
EELAYER 30 0
EELAYER END
$Descr A4 11693 8268
encoding utf-8
Sheet 4 5
Title "IZIRUNF0"
Date "2020-07-06"
Rev "A"
Comp "IZITRON"
Comment1 ""
Comment2 ""
Comment3 ""
Comment4 ""
$EndDescr
Connection ~ 4280 4010
Connection ~ 4280 3410
Connection ~ 2530 3410
Text HLabel 2090 3510 0    50   Input ~ 0
FLASH_CLK
Text HLabel 2090 3710 0    50   Input ~ 0
FLASH_MOSI
Text HLabel 2090 3810 0    50   Output ~ 0
FLASH_MISO
Text HLabel 2090 3410 0    50   Input ~ 0
~FLASH_CS
$Comp
L device:C_Small C7
U 1 1 5D51A556
P 4280 3710
F 0 "C7" H 4395 3795 59  0000 C CIB
F 1 "100nF" H 4400 3635 39  0000 C CIB
F 2 "Capacitor_SMD:C_0603_1608Metric" H 4280 3710 39  0001 C CIB
F 3 "~" H 4280 3710 39  0001 C CIB
F 4 "MC0402B104K160CT" H -420 10  39  0001 C CIB "Manufacture Ref"
F 5 "https://fr.farnell.com/multicomp/mc0402b104k160ct/condensateur-0-1-f-16v-10-x7r/dp/1758896" H -420 10  39  0001 C CIB "Distributor"
	1    4280 3710
	1    0    0    -1  
$EndComp
$Comp
L izi-memory:QSPI_NOR U2
U 1 1 5D51A423
P 3330 3660
F 0 "U2" H 3330 4197 59  0000 C CIB
F 1 "W25X40CLUXIG" H 3330 4091 39  0000 C CIB
F 2 "MyFootPrint:USON8" H 3230 3160 39  0001 C CIB
F 3 "" H 3230 3160 39  0000 C CIB
F 4 "W25X40CLUXIG TR" H 3330 3660 39  0001 C CIB "REF"
F 5 "454-W25X40CLUXIGTR" H 3330 3660 39  0001 C CIB "MOUSER"
F 6 "C401661" H 3330 3660 39  0001 C CIB "LCSC"
	1    3330 3660
	1    0    0    -1  
$EndComp
$Comp
L power:GND #PWR032
U 1 1 5D51A6DE
P 4280 4360
F 0 "#PWR032" H 4280 4110 59  0001 C CIB
F 1 "GND" H 4280 4200 39  0000 C CIB
F 2 "" H 4280 4360 39  0001 C CIB
F 3 "" H 4280 4360 39  0001 C CIB
	1    4280 4360
	1    0    0    -1  
$EndComp
Wire Wire Line
	4280 3810 4280 4010
Wire Wire Line
	4280 2910 4280 3410
Wire Wire Line
	2530 3410 2780 3410
Wire Wire Line
	3880 3410 4280 3410
Wire Wire Line
	2090 3510 2780 3510
Wire Wire Line
	2090 3910 2780 3910
Wire Wire Line
	2530 2910 2530 3060
Wire Wire Line
	3880 4010 4280 4010
Wire Wire Line
	4280 4010 4280 4360
Wire Wire Line
	4280 3410 4280 3610
Wire Wire Line
	2780 3810 2090 3810
Wire Wire Line
	2090 3710 2780 3710
Wire Wire Line
	2090 3410 2530 3410
Wire Wire Line
	2530 3260 2530 3410
Wire Wire Line
	2090 4010 2780 4010
$Comp
L power:+3V3 #PWR031
U 1 1 5EC34D91
P 4280 2910
F 0 "#PWR031" H 4280 2760 59  0001 C CIB
F 1 "+3V3" H 4280 3070 39  0000 C CIB
F 2 "" H 4280 2910 39  0001 C CIB
F 3 "" H 4280 2910 39  0001 C CIB
	1    4280 2910
	1    0    0    -1  
$EndComp
$Comp
L device:R_Small R5
U 1 1 5EE8E054
P 2530 3160
F 0 "R5" H 2635 3160 59  0000 C CIB
F 1 "10k" V 2530 3165 39  0000 C CIB
F 2 "Resistor_SMD:R_0603_1608Metric" H 2530 3160 39  0001 C CIB
F 3 "~" H 2530 3160 39  0001 C CIB
	1    2530 3160
	1    0    0    -1  
$EndComp
$Comp
L power:+3V3 #PWR030
U 1 1 5EC2F0DB
P 2530 2910
F 0 "#PWR030" H 2530 2760 59  0001 C CIB
F 1 "+3V3" H 2530 3070 39  0000 C CIB
F 2 "" H 2530 2910 39  0001 C CIB
F 3 "" H 2530 2910 39  0001 C CIB
	1    2530 2910
	1    0    0    -1  
$EndComp
Connection ~ 9740 3660
Connection ~ 7740 3230
Connection ~ 7630 3860
Connection ~ 7860 3660
Text HLabel 7450 3860 0    50   BiDi ~ 0
EEPROM_SDA
Text HLabel 7450 3660 0    50   Input ~ 0
EEPROM_SCL
$Comp
L power:GND #PWR034
U 1 1 5E2E493A
P 8170 3760
F 0 "#PWR034" H 8170 3510 59  0001 C CIB
F 1 "GND" V 8170 3580 39  0000 C CIB
F 2 "" H 8170 3760 39  0001 C CIB
F 3 "" H 8170 3760 39  0001 C CIB
	1    8170 3760
	0    1    1    0   
$EndComp
$Comp
L SamacSys_Parts:24CW1280T-I_OT U3
U 1 1 5E2E004C
P 8330 3660
F 0 "U3" H 8830 3925 59  0000 C CIB
F 1 "24CW1280T-I_OT" H 8830 3834 39  0000 C CIB
F 2 "SamacSys_Parts:SOT95P280X145-5N" H 9180 3760 39  0001 C CIB
F 3 "https://componentsearchengine.com/Datasheets/1/24CW1280T-I_OT.pdf" H 9180 3660 39  0001 C CIB
F 4 "24CW1280T-I/OT" H 8330 3660 39  0001 C CIB "REF"
F 5 "579-24CW1280T-I/OT" H 8330 3660 39  0001 C CIB "MOUSER"
F 6 "24CW1280T-I/OT" H 8330 3660 39  0001 C CIB "LCSC"
	1    8330 3660
	1    0    0    -1  
$EndComp
$Comp
L device:C_Small C8
U 1 1 5E2E3CF6
P 9740 3890
F 0 "C8" H 9850 3970 59  0000 C CIB
F 1 "100nF" H 9860 3815 39  0000 C CIB
F 2 "Capacitor_SMD:C_0603_1608Metric" H 9740 3890 39  0001 C CIB
F 3 "~" H 9740 3890 39  0001 C CIB
F 4 "MC0402B104K160CT" H 5040 190 39  0001 C CIB "Manufacture Ref"
F 5 "https://fr.farnell.com/multicomp/mc0402b104k160ct/condensateur-0-1-f-16v-10-x7r/dp/1758896" H 5040 190 39  0001 C CIB "Distributor"
	1    9740 3890
	1    0    0    -1  
$EndComp
$Comp
L device:R_Small R7
U 1 1 5E2E6DB1
P 7860 3410
F 0 "R7" H 8000 3405 59  0000 C CIB
F 1 "10k" V 7860 3410 39  0000 C CIB
F 2 "Resistor_SMD:R_0603_1608Metric" H 7860 3410 39  0001 C CIB
F 3 "~" H 7860 3410 39  0001 C CIB
	1    7860 3410
	1    0    0    -1  
$EndComp
$Comp
L power:GND #PWR036
U 1 1 5E2E3469
P 9740 4090
F 0 "#PWR036" H 9740 3840 59  0001 C CIB
F 1 "GND" H 9740 3930 39  0000 C CIB
F 2 "" H 9740 4090 39  0001 C CIB
F 3 "" H 9740 4090 39  0001 C CIB
	1    9740 4090
	1    0    0    -1  
$EndComp
$Comp
L device:R_Small R6
U 1 1 5E2EF758
P 7630 3410
F 0 "R6" H 7735 3410 59  0000 C CIB
F 1 "10k" V 7630 3415 39  0000 C CIB
F 2 "Resistor_SMD:R_0603_1608Metric" H 7630 3410 39  0001 C CIB
F 3 "~" H 7630 3410 39  0001 C CIB
	1    7630 3410
	1    0    0    -1  
$EndComp
Wire Wire Line
	8330 3760 8170 3760
Wire Wire Line
	7860 3230 7860 3310
Wire Wire Line
	9330 3660 9740 3660
Wire Wire Line
	8330 3860 7630 3860
Wire Wire Line
	9740 3790 9740 3660
Wire Wire Line
	9740 3990 9740 4090
Wire Wire Line
	7630 3510 7630 3860
Wire Wire Line
	7630 3860 7450 3860
Wire Wire Line
	8330 3660 7860 3660
Wire Wire Line
	7860 3510 7860 3660
Wire Wire Line
	7860 3660 7450 3660
Wire Wire Line
	7630 3230 7630 3310
Wire Wire Line
	9740 3110 9740 3660
Wire Wire Line
	7740 3110 7740 3230
Wire Wire Line
	7630 3230 7740 3230
Wire Wire Line
	7740 3230 7860 3230
$Comp
L power:+3V3 #PWR035
U 1 1 5EC3BBEC
P 9740 3110
F 0 "#PWR035" H 9740 2960 59  0001 C CIB
F 1 "+3V3" H 9740 3280 39  0000 C CIB
F 2 "" H 9740 3110 39  0001 C CIB
F 3 "" H 9740 3110 39  0001 C CIB
	1    9740 3110
	1    0    0    -1  
$EndComp
$Comp
L power:+3V3 #PWR033
U 1 1 5EC3867D
P 7740 3110
F 0 "#PWR033" H 7740 2960 59  0001 C CIB
F 1 "+3V3" H 7740 3270 39  0000 C CIB
F 2 "" H 7740 3110 39  0001 C CIB
F 3 "" H 7740 3110 39  0001 C CIB
	1    7740 3110
	1    0    0    -1  
$EndComp
Text Notes 6345 800  2    118  Italic 24
MEMORY
$Comp
L power:+3V3 #PWR029
U 1 1 5EEDA63F
P 1945 3960
F 0 "#PWR029" H 1945 3810 59  0001 C CIB
F 1 "+3V3" V 1945 4175 39  0000 C CIB
F 2 "" H 1945 3960 39  0001 C CIB
F 3 "" H 1945 3960 39  0001 C CIB
	1    1945 3960
	0    -1   -1   0   
$EndComp
Wire Wire Line
	2090 3910 2090 3960
Wire Wire Line
	1945 3960 2090 3960
Connection ~ 2090 3960
Wire Wire Line
	2090 3960 2090 4010
Text Notes 9130 2300 2    79   Italic 16
EEPROM
Text Notes 3630 2285 2    79   Italic 16
FLASH
$EndSCHEMATC
