(kicad_sch (version 20211123) (generator eeschema)

  (uuid f7dbe204-704e-455f-b6c7-e42465e89ce0)

  (paper "A4")

  (title_block
    (title "IZIRUNRP2040")
    (date "2022-03-20")
    (rev "B")
    (company "IZITRON")
  )

  (lib_symbols
    (symbol "Device:C_Small" (pin_numbers hide) (pin_names (offset 0.254) hide) (in_bom yes) (on_board yes)
      (property "Reference" "C" (id 0) (at 0.254 1.778 0)
        (effects (font (size 1.27 1.27)) (justify left))
      )
      (property "Value" "C_Small" (id 1) (at 0.254 -2.032 0)
        (effects (font (size 1.27 1.27)) (justify left))
      )
      (property "Footprint" "" (id 2) (at 0 0 0)
        (effects (font (size 1.27 1.27)) hide)
      )
      (property "Datasheet" "~" (id 3) (at 0 0 0)
        (effects (font (size 1.27 1.27)) hide)
      )
      (property "ki_keywords" "capacitor cap" (id 4) (at 0 0 0)
        (effects (font (size 1.27 1.27)) hide)
      )
      (property "ki_description" "Unpolarized capacitor, small symbol" (id 5) (at 0 0 0)
        (effects (font (size 1.27 1.27)) hide)
      )
      (property "ki_fp_filters" "C_*" (id 6) (at 0 0 0)
        (effects (font (size 1.27 1.27)) hide)
      )
      (symbol "C_Small_0_1"
        (polyline
          (pts
            (xy -1.524 -0.508)
            (xy 1.524 -0.508)
          )
          (stroke (width 0.3302) (type default) (color 0 0 0 0))
          (fill (type none))
        )
        (polyline
          (pts
            (xy -1.524 0.508)
            (xy 1.524 0.508)
          )
          (stroke (width 0.3048) (type default) (color 0 0 0 0))
          (fill (type none))
        )
      )
      (symbol "C_Small_1_1"
        (pin passive line (at 0 2.54 270) (length 2.032)
          (name "~" (effects (font (size 1.27 1.27))))
          (number "1" (effects (font (size 1.27 1.27))))
        )
        (pin passive line (at 0 -2.54 90) (length 2.032)
          (name "~" (effects (font (size 1.27 1.27))))
          (number "2" (effects (font (size 1.27 1.27))))
        )
      )
    )
    (symbol "Device:LED_Small" (pin_numbers hide) (pin_names (offset 0.254) hide) (in_bom yes) (on_board yes)
      (property "Reference" "D" (id 0) (at -1.27 3.175 0)
        (effects (font (size 1.27 1.27)) (justify left))
      )
      (property "Value" "LED_Small" (id 1) (at -4.445 -2.54 0)
        (effects (font (size 1.27 1.27)) (justify left))
      )
      (property "Footprint" "" (id 2) (at 0 0 90)
        (effects (font (size 1.27 1.27)) hide)
      )
      (property "Datasheet" "~" (id 3) (at 0 0 90)
        (effects (font (size 1.27 1.27)) hide)
      )
      (property "ki_keywords" "LED diode light-emitting-diode" (id 4) (at 0 0 0)
        (effects (font (size 1.27 1.27)) hide)
      )
      (property "ki_description" "Light emitting diode, small symbol" (id 5) (at 0 0 0)
        (effects (font (size 1.27 1.27)) hide)
      )
      (property "ki_fp_filters" "LED* LED_SMD:* LED_THT:*" (id 6) (at 0 0 0)
        (effects (font (size 1.27 1.27)) hide)
      )
      (symbol "LED_Small_0_1"
        (polyline
          (pts
            (xy -0.762 -1.016)
            (xy -0.762 1.016)
          )
          (stroke (width 0.254) (type default) (color 0 0 0 0))
          (fill (type none))
        )
        (polyline
          (pts
            (xy 1.016 0)
            (xy -0.762 0)
          )
          (stroke (width 0) (type default) (color 0 0 0 0))
          (fill (type none))
        )
        (polyline
          (pts
            (xy 0.762 -1.016)
            (xy -0.762 0)
            (xy 0.762 1.016)
            (xy 0.762 -1.016)
          )
          (stroke (width 0.254) (type default) (color 0 0 0 0))
          (fill (type none))
        )
        (polyline
          (pts
            (xy 0 0.762)
            (xy -0.508 1.27)
            (xy -0.254 1.27)
            (xy -0.508 1.27)
            (xy -0.508 1.016)
          )
          (stroke (width 0) (type default) (color 0 0 0 0))
          (fill (type none))
        )
        (polyline
          (pts
            (xy 0.508 1.27)
            (xy 0 1.778)
            (xy 0.254 1.778)
            (xy 0 1.778)
            (xy 0 1.524)
          )
          (stroke (width 0) (type default) (color 0 0 0 0))
          (fill (type none))
        )
      )
      (symbol "LED_Small_1_1"
        (pin passive line (at -2.54 0 0) (length 1.778)
          (name "K" (effects (font (size 1.27 1.27))))
          (number "1" (effects (font (size 1.27 1.27))))
        )
        (pin passive line (at 2.54 0 180) (length 1.778)
          (name "A" (effects (font (size 1.27 1.27))))
          (number "2" (effects (font (size 1.27 1.27))))
        )
      )
    )
    (symbol "Device:R_Small" (pin_numbers hide) (pin_names (offset 0.254) hide) (in_bom yes) (on_board yes)
      (property "Reference" "R" (id 0) (at 0.762 0.508 0)
        (effects (font (size 1.27 1.27)) (justify left))
      )
      (property "Value" "R_Small" (id 1) (at 0.762 -1.016 0)
        (effects (font (size 1.27 1.27)) (justify left))
      )
      (property "Footprint" "" (id 2) (at 0 0 0)
        (effects (font (size 1.27 1.27)) hide)
      )
      (property "Datasheet" "~" (id 3) (at 0 0 0)
        (effects (font (size 1.27 1.27)) hide)
      )
      (property "ki_keywords" "R resistor" (id 4) (at 0 0 0)
        (effects (font (size 1.27 1.27)) hide)
      )
      (property "ki_description" "Resistor, small symbol" (id 5) (at 0 0 0)
        (effects (font (size 1.27 1.27)) hide)
      )
      (property "ki_fp_filters" "R_*" (id 6) (at 0 0 0)
        (effects (font (size 1.27 1.27)) hide)
      )
      (symbol "R_Small_0_1"
        (rectangle (start -0.762 1.778) (end 0.762 -1.778)
          (stroke (width 0.2032) (type default) (color 0 0 0 0))
          (fill (type none))
        )
      )
      (symbol "R_Small_1_1"
        (pin passive line (at 0 2.54 270) (length 0.762)
          (name "~" (effects (font (size 1.27 1.27))))
          (number "1" (effects (font (size 1.27 1.27))))
        )
        (pin passive line (at 0 -2.54 90) (length 0.762)
          (name "~" (effects (font (size 1.27 1.27))))
          (number "2" (effects (font (size 1.27 1.27))))
        )
      )
    )
    (symbol "SamacSys_Parts:NCP708MU330TAG" (pin_names (offset 0.762)) (in_bom yes) (on_board yes)
      (property "Reference" "IC" (id 0) (at -1.27 11.43 0)
        (effects (font (size 1.27 1.27)) (justify left))
      )
      (property "Value" "NCP708MU330TAG" (id 1) (at -8.89 8.89 0)
        (effects (font (size 1.27 1.27)) (justify left))
      )
      (property "Footprint" "SON95P300X300X55-7N" (id 2) (at -10.16 31.75 0)
        (effects (font (size 1.27 1.27)) (justify left) hide)
      )
      (property "Datasheet" "https://www.onsemi.com/pub/Collateral/NCP708-D.PDF" (id 3) (at -10.16 29.21 0)
        (effects (font (size 1.27 1.27)) (justify left) hide)
      )
      (property "Description" "LDO Regulator Pos 3.3V 1A 6-Pin UDFN EP T/R" (id 4) (at -10.16 26.67 0)
        (effects (font (size 1.27 1.27)) (justify left) hide)
      )
      (property "Height" "0.55" (id 5) (at -10.16 11.43 0)
        (effects (font (size 1.27 1.27)) (justify left) hide)
      )
      (property "Mouser Part Number" "863-NCP708MU330TAG" (id 6) (at -10.16 21.59 0)
        (effects (font (size 1.27 1.27)) (justify left) hide)
      )
      (property "Mouser Price/Stock" "https://www.mouser.co.uk/ProductDetail/ON-Semiconductor/NCP708MU330TAG?qs=tCMd4XlZ%2FiAK%2FL2%2FBzPAnw%3D%3D" (id 7) (at -10.16 19.05 0)
        (effects (font (size 1.27 1.27)) (justify left) hide)
      )
      (property "Manufacturer_Name" "ON Semiconductor" (id 8) (at -10.16 16.51 0)
        (effects (font (size 1.27 1.27)) (justify left) hide)
      )
      (property "Manufacturer_Part_Number" "NCP708MU330TAG" (id 9) (at -10.16 13.97 0)
        (effects (font (size 1.27 1.27)) (justify left) hide)
      )
      (property "ki_description" "LDO Regulator Pos 3.3V 1A 6-Pin UDFN EP T/R" (id 10) (at 0 0 0)
        (effects (font (size 1.27 1.27)) hide)
      )
      (symbol "NCP708MU330TAG_0_0"
        (pin passive line (at -15.24 -2.54 0) (length 5.08)
          (name "EN_1" (effects (font (size 1.27 1.27))))
          (number "1" (effects (font (size 1.27 1.27))))
        )
        (pin power_in line (at -2.54 -15.24 90) (length 5.08)
          (name "GND" (effects (font (size 1.27 1.27))))
          (number "2" (effects (font (size 1.27 1.27))))
        )
        (pin no_connect line (at -15.24 -7.62 0) (length 5.08)
          (name "N/C" (effects (font (size 1.27 1.27))))
          (number "3" (effects (font (size 1.27 1.27))))
        )
        (pin passive line (at 15.24 3.81 180) (length 5.08)
          (name "OUT" (effects (font (size 1.27 1.27))))
          (number "4" (effects (font (size 1.27 1.27))))
        )
        (pin passive line (at 15.24 -5.08 180) (length 5.08)
          (name "OUT_S" (effects (font (size 1.27 1.27))))
          (number "5" (effects (font (size 1.27 1.27))))
        )
        (pin passive line (at -15.24 3.81 0) (length 5.08)
          (name "IN" (effects (font (size 1.27 1.27))))
          (number "6" (effects (font (size 1.27 1.27))))
        )
        (pin power_in line (at 2.54 -15.24 90) (length 5.08)
          (name "GND" (effects (font (size 1.27 1.27))))
          (number "7" (effects (font (size 1.27 1.27))))
        )
      )
      (symbol "NCP708MU330TAG_0_1"
        (polyline
          (pts
            (xy -10.16 7.62)
            (xy 10.16 7.62)
            (xy 10.16 -10.16)
            (xy -10.16 -10.16)
            (xy -10.16 7.62)
          )
          (stroke (width 0.1524) (type default) (color 0 0 0 0))
          (fill (type none))
        )
      )
    )
    (symbol "izi-loadswitch:STMPS21xx" (pin_names (offset 1.016)) (in_bom yes) (on_board yes)
      (property "Reference" "U" (id 0) (at 0 6.35 0)
        (effects (font (size 1.27 1.27)))
      )
      (property "Value" "STMPS21xx" (id 1) (at 0 8.89 0)
        (effects (font (size 1.27 1.27)))
      )
      (property "Footprint" "" (id 2) (at 0 0 0)
        (effects (font (size 1.27 1.27)) hide)
      )
      (property "Datasheet" "" (id 3) (at 0 0 0)
        (effects (font (size 1.27 1.27)) hide)
      )
      (symbol "STMPS21xx_0_1"
        (rectangle (start -7.62 5.08) (end 7.62 -5.08)
          (stroke (width 0) (type default) (color 0 0 0 0))
          (fill (type none))
        )
      )
      (symbol "STMPS21xx_1_1"
        (pin output line (at 10.16 2.54 180) (length 2.54)
          (name "OUT" (effects (font (size 1.27 1.27))))
          (number "1" (effects (font (size 1.27 1.27))))
        )
        (pin input line (at -10.16 -3.81 0) (length 2.54)
          (name "GND" (effects (font (size 1.27 1.27))))
          (number "2" (effects (font (size 1.27 1.27))))
        )
        (pin output line (at 10.16 -2.54 180) (length 2.54)
          (name "~{FAULT}" (effects (font (size 1.27 1.27))))
          (number "3" (effects (font (size 1.27 1.27))))
        )
        (pin input line (at -10.16 0 0) (length 2.54)
          (name "EN" (effects (font (size 1.27 1.27))))
          (number "4" (effects (font (size 1.27 1.27))))
        )
        (pin power_in line (at -10.16 3.81 0) (length 2.54)
          (name "IN" (effects (font (size 1.27 1.27))))
          (number "5" (effects (font (size 1.27 1.27))))
        )
      )
    )
    (symbol "power:+3V3" (power) (pin_names (offset 0)) (in_bom yes) (on_board yes)
      (property "Reference" "#PWR" (id 0) (at 0 -3.81 0)
        (effects (font (size 1.27 1.27)) hide)
      )
      (property "Value" "+3V3" (id 1) (at 0 3.556 0)
        (effects (font (size 1.27 1.27)))
      )
      (property "Footprint" "" (id 2) (at 0 0 0)
        (effects (font (size 1.27 1.27)) hide)
      )
      (property "Datasheet" "" (id 3) (at 0 0 0)
        (effects (font (size 1.27 1.27)) hide)
      )
      (property "ki_keywords" "power-flag" (id 4) (at 0 0 0)
        (effects (font (size 1.27 1.27)) hide)
      )
      (property "ki_description" "Power symbol creates a global label with name \"+3V3\"" (id 5) (at 0 0 0)
        (effects (font (size 1.27 1.27)) hide)
      )
      (symbol "+3V3_0_1"
        (polyline
          (pts
            (xy -0.762 1.27)
            (xy 0 2.54)
          )
          (stroke (width 0) (type default) (color 0 0 0 0))
          (fill (type none))
        )
        (polyline
          (pts
            (xy 0 0)
            (xy 0 2.54)
          )
          (stroke (width 0) (type default) (color 0 0 0 0))
          (fill (type none))
        )
        (polyline
          (pts
            (xy 0 2.54)
            (xy 0.762 1.27)
          )
          (stroke (width 0) (type default) (color 0 0 0 0))
          (fill (type none))
        )
      )
      (symbol "+3V3_1_1"
        (pin power_in line (at 0 0 90) (length 0) hide
          (name "+3V3" (effects (font (size 1.27 1.27))))
          (number "1" (effects (font (size 1.27 1.27))))
        )
      )
    )
    (symbol "power:+5V" (power) (pin_names (offset 0)) (in_bom yes) (on_board yes)
      (property "Reference" "#PWR" (id 0) (at 0 -3.81 0)
        (effects (font (size 1.27 1.27)) hide)
      )
      (property "Value" "+5V" (id 1) (at 0 3.556 0)
        (effects (font (size 1.27 1.27)))
      )
      (property "Footprint" "" (id 2) (at 0 0 0)
        (effects (font (size 1.27 1.27)) hide)
      )
      (property "Datasheet" "" (id 3) (at 0 0 0)
        (effects (font (size 1.27 1.27)) hide)
      )
      (property "ki_keywords" "power-flag" (id 4) (at 0 0 0)
        (effects (font (size 1.27 1.27)) hide)
      )
      (property "ki_description" "Power symbol creates a global label with name \"+5V\"" (id 5) (at 0 0 0)
        (effects (font (size 1.27 1.27)) hide)
      )
      (symbol "+5V_0_1"
        (polyline
          (pts
            (xy -0.762 1.27)
            (xy 0 2.54)
          )
          (stroke (width 0) (type default) (color 0 0 0 0))
          (fill (type none))
        )
        (polyline
          (pts
            (xy 0 0)
            (xy 0 2.54)
          )
          (stroke (width 0) (type default) (color 0 0 0 0))
          (fill (type none))
        )
        (polyline
          (pts
            (xy 0 2.54)
            (xy 0.762 1.27)
          )
          (stroke (width 0) (type default) (color 0 0 0 0))
          (fill (type none))
        )
      )
      (symbol "+5V_1_1"
        (pin power_in line (at 0 0 90) (length 0) hide
          (name "+5V" (effects (font (size 1.27 1.27))))
          (number "1" (effects (font (size 1.27 1.27))))
        )
      )
    )
    (symbol "power:GND" (power) (pin_names (offset 0)) (in_bom yes) (on_board yes)
      (property "Reference" "#PWR" (id 0) (at 0 -6.35 0)
        (effects (font (size 1.27 1.27)) hide)
      )
      (property "Value" "GND" (id 1) (at 0 -3.81 0)
        (effects (font (size 1.27 1.27)))
      )
      (property "Footprint" "" (id 2) (at 0 0 0)
        (effects (font (size 1.27 1.27)) hide)
      )
      (property "Datasheet" "" (id 3) (at 0 0 0)
        (effects (font (size 1.27 1.27)) hide)
      )
      (property "ki_keywords" "power-flag" (id 4) (at 0 0 0)
        (effects (font (size 1.27 1.27)) hide)
      )
      (property "ki_description" "Power symbol creates a global label with name \"GND\" , ground" (id 5) (at 0 0 0)
        (effects (font (size 1.27 1.27)) hide)
      )
      (symbol "GND_0_1"
        (polyline
          (pts
            (xy 0 0)
            (xy 0 -1.27)
            (xy 1.27 -1.27)
            (xy 0 -2.54)
            (xy -1.27 -1.27)
            (xy 0 -1.27)
          )
          (stroke (width 0) (type default) (color 0 0 0 0))
          (fill (type none))
        )
      )
      (symbol "GND_1_1"
        (pin power_in line (at 0 0 270) (length 0) hide
          (name "GND" (effects (font (size 1.27 1.27))))
          (number "1" (effects (font (size 1.27 1.27))))
        )
      )
    )
    (symbol "power:PWR_FLAG" (power) (pin_numbers hide) (pin_names (offset 0) hide) (in_bom yes) (on_board yes)
      (property "Reference" "#FLG" (id 0) (at 0 1.905 0)
        (effects (font (size 1.27 1.27)) hide)
      )
      (property "Value" "PWR_FLAG" (id 1) (at 0 3.81 0)
        (effects (font (size 1.27 1.27)))
      )
      (property "Footprint" "" (id 2) (at 0 0 0)
        (effects (font (size 1.27 1.27)) hide)
      )
      (property "Datasheet" "~" (id 3) (at 0 0 0)
        (effects (font (size 1.27 1.27)) hide)
      )
      (property "ki_keywords" "power-flag" (id 4) (at 0 0 0)
        (effects (font (size 1.27 1.27)) hide)
      )
      (property "ki_description" "Special symbol for telling ERC where power comes from" (id 5) (at 0 0 0)
        (effects (font (size 1.27 1.27)) hide)
      )
      (symbol "PWR_FLAG_0_0"
        (pin power_out line (at 0 0 90) (length 0)
          (name "pwr" (effects (font (size 1.27 1.27))))
          (number "1" (effects (font (size 1.27 1.27))))
        )
      )
      (symbol "PWR_FLAG_0_1"
        (polyline
          (pts
            (xy 0 0)
            (xy 0 1.27)
            (xy -1.016 1.905)
            (xy 0 2.54)
            (xy 1.016 1.905)
            (xy 0 1.27)
          )
          (stroke (width 0) (type default) (color 0 0 0 0))
          (fill (type none))
        )
      )
    )
  )

  (junction (at 109.601 79.375) (diameter 1.016) (color 0 0 0 0)
    (uuid 008da5b9-6f95-4113-b7d0-d93ac62efd33)
  )
  (junction (at 28.194 171.196) (diameter 1.016) (color 0 0 0 0)
    (uuid 04cf2f2c-74bf-400d-b4f6-201720df00ed)
  )
  (junction (at 165.481 79.375) (diameter 1.016) (color 0 0 0 0)
    (uuid 0fafc6b9-fd35-4a55-9270-7a8e7ce3cb13)
  )
  (junction (at 28.194 178.816) (diameter 1.016) (color 0 0 0 0)
    (uuid 1bdd5841-68b7-42e2-9447-cbdb608d8a08)
  )
  (junction (at 146.558 102.235) (diameter 1.016) (color 0 0 0 0)
    (uuid 27b2eb82-662b-42d8-90e6-830fec4bb8d2)
  )
  (junction (at 120.269 79.375) (diameter 1.016) (color 0 0 0 0)
    (uuid 5d3d7893-1d11-4f1d-9052-85cf0e07d281)
  )
  (junction (at 170.688 79.375) (diameter 1.016) (color 0 0 0 0)
    (uuid 66218487-e316-4467-9eba-79d4626ab24e)
  )
  (junction (at 124.841 172.466) (diameter 1.016) (color 0 0 0 0)
    (uuid 79476267-290e-445f-995b-0afd0e11a4b5)
  )
  (junction (at 128.778 79.375) (diameter 1.016) (color 0 0 0 0)
    (uuid 8b290a17-6328-4178-9131-29524d345539)
  )
  (junction (at 85.598 172.466) (diameter 1.016) (color 0 0 0 0)
    (uuid aeb03be9-98f0-43f6-9432-1bb35aa04bab)
  )

  (wire (pts (xy 80.264 172.466) (xy 85.598 172.466))
    (stroke (width 0) (type solid) (color 0 0 0 0))
    (uuid 0074e4e8-c548-4ea1-8da3-efafb5bb1daa)
  )
  (wire (pts (xy 149.225 172.466) (xy 154.686 172.466))
    (stroke (width 0) (type solid) (color 0 0 0 0))
    (uuid 0219e1d2-3056-4292-b510-1f03157b1a55)
  )
  (wire (pts (xy 32.131 27.94) (xy 38.481 27.94))
    (stroke (width 0) (type solid) (color 0 0 0 0))
    (uuid 02ea0de5-7034-4af6-910f-605246cf4093)
  )
  (wire (pts (xy 170.688 73.279) (xy 170.688 79.375))
    (stroke (width 0) (type solid) (color 0 0 0 0))
    (uuid 0475055a-7284-4d50-9b83-ee3178a09bc3)
  )
  (wire (pts (xy 59.944 178.816) (xy 28.194 178.816))
    (stroke (width 0) (type solid) (color 0 0 0 0))
    (uuid 0496d0b0-ebed-4420-962a-34a8d4f29147)
  )
  (wire (pts (xy 109.601 73.152) (xy 109.601 79.375))
    (stroke (width 0) (type solid) (color 0 0 0 0))
    (uuid 0ba951c7-9256-4442-8d05-8d6fea75464f)
  )
  (wire (pts (xy 170.688 79.375) (xy 185.039 79.375))
    (stroke (width 0) (type solid) (color 0 0 0 0))
    (uuid 11564a70-6dbd-42ea-972e-2fb6c79979fb)
  )
  (wire (pts (xy 28.194 171.196) (xy 28.194 172.466))
    (stroke (width 0) (type solid) (color 0 0 0 0))
    (uuid 13c47836-92e7-447b-abb0-bbcf7d6be705)
  )
  (wire (pts (xy 120.269 90.551) (xy 120.269 86.487))
    (stroke (width 0) (type solid) (color 0 0 0 0))
    (uuid 13e06488-01ee-4f0c-b2ae-4677743abee9)
  )
  (wire (pts (xy 53.975 175.006) (xy 59.944 175.006))
    (stroke (width 0) (type solid) (color 0 0 0 0))
    (uuid 23c80559-312d-47da-81e6-79dc1623a601)
  )
  (wire (pts (xy 161.925 88.265) (xy 165.481 88.265))
    (stroke (width 0) (type solid) (color 0 0 0 0))
    (uuid 274517b6-2c4d-4a9e-b41f-4bf369642b31)
  )
  (wire (pts (xy 149.225 98.425) (xy 149.225 102.235))
    (stroke (width 0) (type solid) (color 0 0 0 0))
    (uuid 32d408d2-f031-448f-8c78-797fcb9dd42e)
  )
  (wire (pts (xy 32.131 24.13) (xy 38.354 24.13))
    (stroke (width 0) (type solid) (color 0 0 0 0))
    (uuid 3540fabb-b1e2-4031-96c1-ff16dbc1a090)
  )
  (wire (pts (xy 32.131 31.75) (xy 38.481 31.75))
    (stroke (width 0) (type solid) (color 0 0 0 0))
    (uuid 3b84d389-0473-4753-bd5f-f98199bc99da)
  )
  (wire (pts (xy 28.194 178.816) (xy 28.194 181.991))
    (stroke (width 0) (type solid) (color 0 0 0 0))
    (uuid 442f47b0-4a55-477b-a226-588c0b2caf7d)
  )
  (wire (pts (xy 144.145 98.425) (xy 144.145 102.235))
    (stroke (width 0) (type solid) (color 0 0 0 0))
    (uuid 487f709a-38a5-4140-9012-5f3d17fa1580)
  )
  (wire (pts (xy 59.944 171.196) (xy 28.194 171.196))
    (stroke (width 0) (type solid) (color 0 0 0 0))
    (uuid 49a9f70c-092c-4eff-922e-59366313b1ba)
  )
  (wire (pts (xy 161.925 79.375) (xy 165.481 79.375))
    (stroke (width 0) (type solid) (color 0 0 0 0))
    (uuid 49f7d9f7-4d0d-4be3-ae2e-441a293bd379)
  )
  (wire (pts (xy 100.584 177.546) (xy 97.409 177.546))
    (stroke (width 0) (type solid) (color 0 0 0 0))
    (uuid 4a9f504b-bf7f-4a9a-b1ff-794fb2771f96)
  )
  (wire (pts (xy 109.601 79.375) (xy 109.601 81.407))
    (stroke (width 0) (type solid) (color 0 0 0 0))
    (uuid 4bea8b93-d81d-4752-9709-f3b264eb3bd8)
  )
  (wire (pts (xy 124.841 172.466) (xy 131.826 172.466))
    (stroke (width 0) (type solid) (color 0 0 0 0))
    (uuid 5430cc17-63ac-4e52-ab8d-1f1916c45116)
  )
  (wire (pts (xy 89.281 168.275) (xy 85.598 168.275))
    (stroke (width 0) (type solid) (color 0 0 0 0))
    (uuid 66f52b58-3f2f-4d77-8400-7145a8cc1594)
  )
  (wire (pts (xy 146.558 102.235) (xy 146.558 105.791))
    (stroke (width 0) (type solid) (color 0 0 0 0))
    (uuid 71bdc8b3-7d65-42f6-bdcb-20106acc7e46)
  )
  (wire (pts (xy 109.601 86.487) (xy 109.601 90.551))
    (stroke (width 0) (type solid) (color 0 0 0 0))
    (uuid 7742c4dc-1921-4cd3-898c-11f23c26353c)
  )
  (wire (pts (xy 170.688 86.487) (xy 170.688 90.551))
    (stroke (width 0) (type solid) (color 0 0 0 0))
    (uuid 857457d0-47cb-489a-920a-64b9648ee981)
  )
  (wire (pts (xy 128.778 79.375) (xy 131.445 79.375))
    (stroke (width 0) (type solid) (color 0 0 0 0))
    (uuid 87d6be54-a452-4dda-9e02-7082634261f6)
  )
  (wire (pts (xy 149.225 102.235) (xy 146.558 102.235))
    (stroke (width 0) (type solid) (color 0 0 0 0))
    (uuid 8d0c9bb1-2be2-4324-935d-f67bd5166344)
  )
  (wire (pts (xy 28.194 177.546) (xy 28.194 178.816))
    (stroke (width 0) (type solid) (color 0 0 0 0))
    (uuid 90d81653-7b25-4965-8d7c-98d60af751fd)
  )
  (wire (pts (xy 165.481 79.375) (xy 170.688 79.375))
    (stroke (width 0) (type solid) (color 0 0 0 0))
    (uuid 9237950c-c1d4-4f8c-b892-81da77b47cbe)
  )
  (wire (pts (xy 109.093 177.546) (xy 105.664 177.546))
    (stroke (width 0) (type solid) (color 0 0 0 0))
    (uuid aa4951d5-7ef7-453e-94d8-af24f28c2e91)
  )
  (wire (pts (xy 85.598 172.466) (xy 124.841 172.466))
    (stroke (width 0) (type solid) (color 0 0 0 0))
    (uuid aab6198e-87af-4ea3-8284-dc25a1c1fe80)
  )
  (wire (pts (xy 128.778 85.725) (xy 128.778 79.375))
    (stroke (width 0) (type solid) (color 0 0 0 0))
    (uuid b2bcaaa1-f6b4-4616-bcfe-80ba85e6702d)
  )
  (wire (pts (xy 124.841 178.181) (xy 124.841 172.466))
    (stroke (width 0) (type solid) (color 0 0 0 0))
    (uuid b36d985a-5166-4e55-8543-3609b561a646)
  )
  (wire (pts (xy 80.264 177.546) (xy 92.329 177.546))
    (stroke (width 0) (type solid) (color 0 0 0 0))
    (uuid b8516bdf-aedd-4ca5-931b-03f9aa19bd1d)
  )
  (wire (pts (xy 136.906 172.466) (xy 144.145 172.466))
    (stroke (width 0) (type solid) (color 0 0 0 0))
    (uuid c3020dc0-7f98-4d48-aa65-5fb6df2158ca)
  )
  (wire (pts (xy 131.445 85.725) (xy 128.778 85.725))
    (stroke (width 0) (type solid) (color 0 0 0 0))
    (uuid c3a297f1-7063-4fad-b28f-b922aae77e99)
  )
  (wire (pts (xy 197.612 79.375) (xy 198.882 79.375))
    (stroke (width 0) (type solid) (color 0 0 0 0))
    (uuid c59ae1d6-26d6-4d20-bcda-223fd5c647e5)
  )
  (wire (pts (xy 170.688 79.375) (xy 170.688 81.407))
    (stroke (width 0) (type solid) (color 0 0 0 0))
    (uuid d394c101-a0cd-41d5-9d62-78094bfcda2f)
  )
  (wire (pts (xy 28.194 166.116) (xy 28.194 171.196))
    (stroke (width 0) (type solid) (color 0 0 0 0))
    (uuid d9ffa400-b06d-46b7-9c00-d39e792bff73)
  )
  (wire (pts (xy 120.269 81.407) (xy 120.269 79.375))
    (stroke (width 0) (type solid) (color 0 0 0 0))
    (uuid ddd1dd28-3bff-48f7-9b92-a087a0816676)
  )
  (wire (pts (xy 120.269 79.375) (xy 128.778 79.375))
    (stroke (width 0) (type solid) (color 0 0 0 0))
    (uuid e17dc8f2-f84a-4044-862c-28361f1a7c8f)
  )
  (wire (pts (xy 144.145 102.235) (xy 146.558 102.235))
    (stroke (width 0) (type solid) (color 0 0 0 0))
    (uuid ecd2247d-61ca-4d1b-a5ce-3ec8a56059f7)
  )
  (wire (pts (xy 120.269 79.375) (xy 109.601 79.375))
    (stroke (width 0) (type solid) (color 0 0 0 0))
    (uuid ee5bc97e-658f-48f5-9131-134f8531cd54)
  )
  (wire (pts (xy 165.481 88.265) (xy 165.481 79.375))
    (stroke (width 0) (type solid) (color 0 0 0 0))
    (uuid f0e1a7a3-4009-4e89-8ccd-0ef7b10934fc)
  )
  (wire (pts (xy 85.598 168.275) (xy 85.598 172.466))
    (stroke (width 0) (type solid) (color 0 0 0 0))
    (uuid f65d9918-e07a-448a-b6e3-7f680d2fd64f)
  )
  (wire (pts (xy 190.119 79.375) (xy 192.532 79.375))
    (stroke (width 0) (type solid) (color 0 0 0 0))
    (uuid f92bac4a-a57e-4ddc-94a6-cdf524937693)
  )
  (wire (pts (xy 124.841 183.261) (xy 124.841 185.801))
    (stroke (width 0) (type solid) (color 0 0 0 0))
    (uuid fbab4a36-cd9b-4961-9fcc-e4d27124c1e0)
  )

  (text "LDO for USB" (at 92.456 153.67 180)
    (effects (font (size 2.0066 2.0066) (thickness 0.4013) bold italic) (justify right bottom))
    (uuid 67fe281e-1558-44a0-925a-d6bfc63868fc)
  )
  (text "POWER" (at 156.21 19.685 180)
    (effects (font (size 2.9972 2.9972) (thickness 0.5994) bold italic) (justify right bottom))
    (uuid 6c36efe5-0f8a-4539-add1-255963c24ea4)
  )
  (text "LDO" (at 150.114 62.484 180)
    (effects (font (size 2.0066 2.0066) (thickness 0.4013) bold italic) (justify right bottom))
    (uuid e72b4641-dfc6-4b96-b64e-dd0a9327ba12)
  )

  (hierarchical_label "USB_VBUS" (shape output) (at 89.281 168.275 0)
    (effects (font (size 1.27 1.27)) (justify left))
    (uuid b74a545a-16c6-46cc-b72e-cb09b35d8020)
  )
  (hierarchical_label "USB_EN" (shape input) (at 53.975 175.006 180)
    (effects (font (size 1.27 1.27)) (justify right))
    (uuid db415d45-5a40-49e7-8913-dac1a2415b8a)
  )

  (symbol (lib_id "Device:R_Small") (at 187.579 79.375 90) (mirror x) (unit 1)
    (in_bom yes) (on_board yes)
    (uuid 00000000-0000-0000-0000-00005cc01c19)
    (property "Reference" "R8" (id 0) (at 187.579 81.534 90)
      (effects (font (size 1.4986 1.4986) bold italic))
    )
    (property "Value" "750" (id 1) (at 187.706 79.375 90)
      (effects (font (size 0.9906 0.9906) bold italic))
    )
    (property "Footprint" "Resistor_SMD:R_0603_1608Metric" (id 2) (at 187.579 79.375 0)
      (effects (font (size 1.27 1.27)) hide)
    )
    (property "Datasheet" "~" (id 3) (at 187.579 79.375 0)
      (effects (font (size 1.27 1.27)) hide)
    )
    (pin "1" (uuid ec368c2e-6323-419f-908b-057fa95f60ff))
    (pin "2" (uuid cba75354-7aec-4783-818e-3cbcafbf8fcb))
  )

  (symbol (lib_id "Device:LED_Small") (at 195.072 79.375 180) (unit 1)
    (in_bom yes) (on_board yes)
    (uuid 00000000-0000-0000-0000-00005cc01c20)
    (property "Reference" "D2" (id 0) (at 195.199 82.423 0)
      (effects (font (size 1.4986 1.4986) bold italic))
    )
    (property "Value" "GREEN 2mA" (id 1) (at 195.072 77.343 0)
      (effects (font (size 0.9906 0.9906) bold italic))
    )
    (property "Footprint" "LED_SMD:LED_0805_2012Metric" (id 2) (at 195.072 79.375 90)
      (effects (font (size 1.27 1.27)) hide)
    )
    (property "Datasheet" "~" (id 3) (at 195.072 79.375 90)
      (effects (font (size 1.27 1.27)) hide)
    )
    (property "FARNELL" "2217981" (id 4) (at 195.072 79.375 0)
      (effects (font (size 0.9906 0.9906) bold italic) hide)
    )
    (property "FAB REF" "KPT-2012ZGC" (id 5) (at 194.945 75.565 0)
      (effects (font (size 0.9906 0.9906) bold italic))
    )
    (property "LCSC" "C598372" (id 6) (at 195.072 79.375 0)
      (effects (font (size 0.9906 0.9906) bold italic) hide)
    )
    (pin "1" (uuid 88390248-1bb9-4051-bd58-e4b3c203f973))
    (pin "2" (uuid c4c43327-dded-4e01-a334-bb78fb957c54))
  )

  (symbol (lib_id "power:GND") (at 198.882 79.375 90) (mirror x) (unit 1)
    (in_bom yes) (on_board yes)
    (uuid 00000000-0000-0000-0000-00005cc01c27)
    (property "Reference" "#PWR028" (id 0) (at 205.232 79.375 0)
      (effects (font (size 1.4986 1.4986) bold italic) hide)
    )
    (property "Value" "GND" (id 1) (at 203.454 79.248 90)
      (effects (font (size 0.9906 0.9906) bold italic))
    )
    (property "Footprint" "" (id 2) (at 198.882 79.375 0)
      (effects (font (size 0.9906 0.9906) bold italic) hide)
    )
    (property "Datasheet" "" (id 3) (at 198.882 79.375 0)
      (effects (font (size 0.9906 0.9906) bold italic) hide)
    )
    (pin "1" (uuid 69f1564f-b4fa-487c-9438-0c7785734b4b))
  )

  (symbol (lib_id "power:PWR_FLAG") (at 32.131 24.13 90) (unit 1)
    (in_bom yes) (on_board yes)
    (uuid 00000000-0000-0000-0000-00005cecae3e)
    (property "Reference" "#FLG02" (id 0) (at 30.226 24.13 0)
      (effects (font (size 1.4986 1.4986) bold italic) hide)
    )
    (property "Value" "PWR_FLAG" (id 1) (at 25.4 24.003 90)
      (effects (font (size 0.9906 0.9906) bold italic))
    )
    (property "Footprint" "" (id 2) (at 32.131 24.13 0)
      (effects (font (size 0.9906 0.9906) bold italic) hide)
    )
    (property "Datasheet" "~" (id 3) (at 32.131 24.13 0)
      (effects (font (size 0.9906 0.9906) bold italic) hide)
    )
    (pin "1" (uuid 81b862d9-6cc9-4fa2-8dcd-016afac44b67))
  )

  (symbol (lib_id "power:+3V3") (at 170.688 73.279 0) (unit 1)
    (in_bom yes) (on_board yes)
    (uuid 00000000-0000-0000-0000-00005ec774df)
    (property "Reference" "#PWR026" (id 0) (at 170.688 77.089 0)
      (effects (font (size 1.4986 1.4986) bold italic) hide)
    )
    (property "Value" "+3V3" (id 1) (at 171.069 68.8848 0)
      (effects (font (size 0.9906 0.9906) bold italic))
    )
    (property "Footprint" "" (id 2) (at 170.688 73.279 0)
      (effects (font (size 0.9906 0.9906) bold italic) hide)
    )
    (property "Datasheet" "" (id 3) (at 170.688 73.279 0)
      (effects (font (size 0.9906 0.9906) bold italic) hide)
    )
    (pin "1" (uuid d1604356-7843-427f-ae0c-6f828564d195))
  )

  (symbol (lib_id "power:GND") (at 170.688 90.551 0) (unit 1)
    (in_bom yes) (on_board yes)
    (uuid 00000000-0000-0000-0000-00005ecb8f51)
    (property "Reference" "#PWR027" (id 0) (at 170.688 96.901 0)
      (effects (font (size 1.4986 1.4986) bold italic) hide)
    )
    (property "Value" "GND" (id 1) (at 170.815 94.234 0)
      (effects (font (size 0.9906 0.9906) bold italic))
    )
    (property "Footprint" "" (id 2) (at 170.688 90.551 0)
      (effects (font (size 0.9906 0.9906) bold italic) hide)
    )
    (property "Datasheet" "" (id 3) (at 170.688 90.551 0)
      (effects (font (size 0.9906 0.9906) bold italic) hide)
    )
    (pin "1" (uuid f04f3525-0545-43a8-859d-433769a1dbdb))
  )

  (symbol (lib_id "Device:C_Small") (at 170.688 83.947 0) (unit 1)
    (in_bom yes) (on_board yes)
    (uuid 00000000-0000-0000-0000-00005ecd3d2d)
    (property "Reference" "C11" (id 0) (at 173.482 81.915 0)
      (effects (font (size 1.4986 1.4986) bold italic))
    )
    (property "Value" "10uF" (id 1) (at 173.228 85.852 0)
      (effects (font (size 0.9906 0.9906) bold italic))
    )
    (property "Footprint" "Capacitor_SMD:C_0603_1608Metric" (id 2) (at 170.688 83.947 0)
      (effects (font (size 1.27 1.27)) hide)
    )
    (property "Datasheet" "~" (id 3) (at 170.688 83.947 0)
      (effects (font (size 1.27 1.27)) hide)
    )
    (property "Distributor" "https://fr.farnell.com/murata/grm21br61c106ke15k/condensateur-10-f-16v-10-x5r-0805/dp/2611940" (id 4) (at -30.607 174.117 0)
      (effects (font (size 0.9906 0.9906) bold italic) hide)
    )
    (property "Manufacture Ref" "GRM21BR61C106KE15K" (id 5) (at -30.607 174.117 0)
      (effects (font (size 0.9906 0.9906) bold italic) hide)
    )
    (pin "1" (uuid d8c5ddfc-54d4-4b17-be2a-9c3fa8364f3d))
    (pin "2" (uuid e6d2cf58-8cf3-4083-8c30-7bf34a9705cd))
  )

  (symbol (lib_id "power:GND") (at 146.558 105.791 0) (unit 1)
    (in_bom yes) (on_board yes)
    (uuid 00000000-0000-0000-0000-00005ece1140)
    (property "Reference" "#PWR025" (id 0) (at 146.558 112.141 0)
      (effects (font (size 1.4986 1.4986) bold italic) hide)
    )
    (property "Value" "GND" (id 1) (at 146.558 109.474 0)
      (effects (font (size 0.9906 0.9906) bold italic))
    )
    (property "Footprint" "" (id 2) (at 146.558 105.791 0)
      (effects (font (size 0.9906 0.9906) bold italic) hide)
    )
    (property "Datasheet" "" (id 3) (at 146.558 105.791 0)
      (effects (font (size 0.9906 0.9906) bold italic) hide)
    )
    (pin "1" (uuid dea6a686-77a8-466c-8d86-751fa3ea6b3c))
  )

  (symbol (lib_id "power:GND") (at 109.601 90.551 0) (unit 1)
    (in_bom yes) (on_board yes)
    (uuid 00000000-0000-0000-0000-00005ecf6773)
    (property "Reference" "#PWR023" (id 0) (at 109.601 96.901 0)
      (effects (font (size 1.4986 1.4986) bold italic) hide)
    )
    (property "Value" "GND" (id 1) (at 109.728 94.234 0)
      (effects (font (size 0.9906 0.9906) bold italic))
    )
    (property "Footprint" "" (id 2) (at 109.601 90.551 0)
      (effects (font (size 0.9906 0.9906) bold italic) hide)
    )
    (property "Datasheet" "" (id 3) (at 109.601 90.551 0)
      (effects (font (size 0.9906 0.9906) bold italic) hide)
    )
    (pin "1" (uuid 4b46ac8b-6a21-4411-b9eb-02e8c6185687))
  )

  (symbol (lib_id "Device:C_Small") (at 109.601 83.947 0) (unit 1)
    (in_bom yes) (on_board yes)
    (uuid 00000000-0000-0000-0000-00005ecff147)
    (property "Reference" "C9" (id 0) (at 112.395 81.915 0)
      (effects (font (size 1.4986 1.4986) bold italic))
    )
    (property "Value" "10uF" (id 1) (at 112.014 85.852 0)
      (effects (font (size 0.9906 0.9906) bold italic))
    )
    (property "Footprint" "Capacitor_SMD:C_0603_1608Metric" (id 2) (at 109.601 83.947 0)
      (effects (font (size 1.27 1.27)) hide)
    )
    (property "Datasheet" "~" (id 3) (at 109.601 83.947 0)
      (effects (font (size 1.27 1.27)) hide)
    )
    (property "Distributor" "https://fr.farnell.com/murata/grm21br61c106ke15k/condensateur-10-f-16v-10-x5r-0805/dp/2611940" (id 4) (at -91.694 174.117 0)
      (effects (font (size 0.9906 0.9906) bold italic) hide)
    )
    (property "Manufacture Ref" "GRM21BR61C106KE15K" (id 5) (at -91.694 174.117 0)
      (effects (font (size 0.9906 0.9906) bold italic) hide)
    )
    (pin "1" (uuid be4b8aa6-0b9b-409d-a7e8-411386a7b200))
    (pin "2" (uuid 1295e03f-4d74-47f1-ae6e-2df55b5f2c18))
  )

  (symbol (lib_id "power:GND") (at 120.269 90.551 0) (unit 1)
    (in_bom yes) (on_board yes)
    (uuid 00000000-0000-0000-0000-00005ef7e054)
    (property "Reference" "#PWR024" (id 0) (at 120.269 96.901 0)
      (effects (font (size 1.4986 1.4986) bold italic) hide)
    )
    (property "Value" "GND" (id 1) (at 120.396 94.234 0)
      (effects (font (size 0.9906 0.9906) bold italic))
    )
    (property "Footprint" "" (id 2) (at 120.269 90.551 0)
      (effects (font (size 0.9906 0.9906) bold italic) hide)
    )
    (property "Datasheet" "" (id 3) (at 120.269 90.551 0)
      (effects (font (size 0.9906 0.9906) bold italic) hide)
    )
    (pin "1" (uuid 5873b096-33c5-442e-807f-e92315823ac3))
  )

  (symbol (lib_id "power:+5V") (at 38.354 24.13 270) (unit 1)
    (in_bom yes) (on_board yes)
    (uuid 00000000-0000-0000-0000-00005efe35fd)
    (property "Reference" "#PWR019" (id 0) (at 34.544 24.13 0)
      (effects (font (size 1.4986 1.4986) bold italic) hide)
    )
    (property "Value" "+5V" (id 1) (at 42.926 24.13 90)
      (effects (font (size 0.9906 0.9906) bold italic))
    )
    (property "Footprint" "" (id 2) (at 38.354 24.13 0)
      (effects (font (size 0.9906 0.9906) bold italic) hide)
    )
    (property "Datasheet" "" (id 3) (at 38.354 24.13 0)
      (effects (font (size 0.9906 0.9906) bold italic) hide)
    )
    (pin "1" (uuid 0a00850c-d794-4274-97f9-c6eab52a4142))
  )

  (symbol (lib_id "power:PWR_FLAG") (at 32.131 27.94 90) (unit 1)
    (in_bom yes) (on_board yes)
    (uuid 00000000-0000-0000-0000-00005efe5807)
    (property "Reference" "#FLG03" (id 0) (at 30.226 27.94 0)
      (effects (font (size 1.4986 1.4986) bold italic) hide)
    )
    (property "Value" "PWR_FLAG" (id 1) (at 25.4 27.813 90)
      (effects (font (size 0.9906 0.9906) bold italic))
    )
    (property "Footprint" "" (id 2) (at 32.131 27.94 0)
      (effects (font (size 0.9906 0.9906) bold italic) hide)
    )
    (property "Datasheet" "~" (id 3) (at 32.131 27.94 0)
      (effects (font (size 0.9906 0.9906) bold italic) hide)
    )
    (pin "1" (uuid 3b7d5b90-636c-445b-8888-af9cf2b40410))
  )

  (symbol (lib_id "power:+3V3") (at 38.481 27.94 270) (unit 1)
    (in_bom yes) (on_board yes)
    (uuid 00000000-0000-0000-0000-00005efe989e)
    (property "Reference" "#PWR020" (id 0) (at 34.671 27.94 0)
      (effects (font (size 1.4986 1.4986) bold italic) hide)
    )
    (property "Value" "+3V3" (id 1) (at 43.561 27.94 90)
      (effects (font (size 0.9906 0.9906) bold italic))
    )
    (property "Footprint" "" (id 2) (at 38.481 27.94 0)
      (effects (font (size 0.9906 0.9906) bold italic) hide)
    )
    (property "Datasheet" "" (id 3) (at 38.481 27.94 0)
      (effects (font (size 0.9906 0.9906) bold italic) hide)
    )
    (pin "1" (uuid 88641022-4815-4e52-aa9b-f4acf4bbb2db))
  )

  (symbol (lib_id "power:PWR_FLAG") (at 32.131 31.75 90) (unit 1)
    (in_bom yes) (on_board yes)
    (uuid 00000000-0000-0000-0000-00005f000629)
    (property "Reference" "#FLG04" (id 0) (at 30.226 31.75 0)
      (effects (font (size 1.4986 1.4986) bold italic) hide)
    )
    (property "Value" "PWR_FLAG" (id 1) (at 25.4 31.623 90)
      (effects (font (size 0.9906 0.9906) bold italic))
    )
    (property "Footprint" "" (id 2) (at 32.131 31.75 0)
      (effects (font (size 0.9906 0.9906) bold italic) hide)
    )
    (property "Datasheet" "~" (id 3) (at 32.131 31.75 0)
      (effects (font (size 0.9906 0.9906) bold italic) hide)
    )
    (pin "1" (uuid 7699a752-ceb1-4f19-85fa-2cdede9621bb))
  )

  (symbol (lib_id "power:GND") (at 38.481 31.75 90) (unit 1)
    (in_bom yes) (on_board yes)
    (uuid 00000000-0000-0000-0000-00005f003546)
    (property "Reference" "#PWR021" (id 0) (at 44.831 31.75 0)
      (effects (font (size 1.4986 1.4986) bold italic) hide)
    )
    (property "Value" "GND" (id 1) (at 43.307 31.75 90)
      (effects (font (size 0.9906 0.9906) bold italic))
    )
    (property "Footprint" "" (id 2) (at 38.481 31.75 0)
      (effects (font (size 0.9906 0.9906) bold italic) hide)
    )
    (property "Datasheet" "" (id 3) (at 38.481 31.75 0)
      (effects (font (size 0.9906 0.9906) bold italic) hide)
    )
    (pin "1" (uuid 841d2f7b-02f1-4a47-b013-6ea39ba2c089))
  )

  (symbol (lib_id "power:+5V") (at 109.601 73.152 0) (unit 1)
    (in_bom yes) (on_board yes)
    (uuid 00000000-0000-0000-0000-00005f050ace)
    (property "Reference" "#PWR022" (id 0) (at 109.601 76.962 0)
      (effects (font (size 1.4986 1.4986) bold italic) hide)
    )
    (property "Value" "+5V" (id 1) (at 109.982 68.7578 0)
      (effects (font (size 0.9906 0.9906) bold italic))
    )
    (property "Footprint" "" (id 2) (at 109.601 73.152 0)
      (effects (font (size 0.9906 0.9906) bold italic) hide)
    )
    (property "Datasheet" "" (id 3) (at 109.601 73.152 0)
      (effects (font (size 0.9906 0.9906) bold italic) hide)
    )
    (pin "1" (uuid c1a6f82e-5312-43cb-8674-a3283b2fcce1))
  )

  (symbol (lib_id "Device:C_Small") (at 120.269 83.947 0) (unit 1)
    (in_bom yes) (on_board yes)
    (uuid 00000000-0000-0000-0000-00005f06b7cb)
    (property "Reference" "C10" (id 0) (at 123.063 81.915 0)
      (effects (font (size 1.4986 1.4986) bold italic))
    )
    (property "Value" "1uF" (id 1) (at 122.682 85.852 0)
      (effects (font (size 0.9906 0.9906) bold italic))
    )
    (property "Footprint" "Capacitor_SMD:C_0603_1608Metric" (id 2) (at 120.269 83.947 0)
      (effects (font (size 1.27 1.27)) hide)
    )
    (property "Datasheet" "~" (id 3) (at 120.269 83.947 0)
      (effects (font (size 1.27 1.27)) hide)
    )
    (property "Distributor" "https://fr.farnell.com/murata/grm21br61c106ke15k/condensateur-10-f-16v-10-x5r-0805/dp/2611940" (id 4) (at -81.026 174.117 0)
      (effects (font (size 0.9906 0.9906) bold italic) hide)
    )
    (property "Manufacture Ref" "GRM21BR61C106KE15K" (id 5) (at -81.026 174.117 0)
      (effects (font (size 0.9906 0.9906) bold italic) hide)
    )
    (pin "1" (uuid 2cef3f7c-9cde-43ff-a01d-d290be1c2647))
    (pin "2" (uuid 0c64cb07-f175-41a6-ad75-74b23cc4dddc))
  )

  (symbol (lib_id "SamacSys_Parts:NCP708MU330TAG") (at 146.685 83.185 0) (unit 1)
    (in_bom yes) (on_board yes)
    (uuid 00000000-0000-0000-0000-00005ff0ea7c)
    (property "Reference" "U4" (id 0) (at 146.685 71.9836 0)
      (effects (font (size 0.9906 0.9906) bold italic))
    )
    (property "Value" "NCP708MU330TAG" (id 1) (at 146.685 73.8886 0)
      (effects (font (size 0.9906 0.9906) bold italic))
    )
    (property "Footprint" "SamacSys_Parts:SON95P300X300X55-7N" (id 2) (at 136.525 51.435 0)
      (effects (font (size 1.27 1.27)) (justify left) hide)
    )
    (property "Datasheet" "https://www.onsemi.com/pub/Collateral/NCP708-D.PDF" (id 3) (at 136.525 53.975 0)
      (effects (font (size 1.27 1.27)) (justify left) hide)
    )
    (property "Description" "LDO Regulator Pos 3.3V 1A 6-Pin UDFN EP T/R" (id 4) (at 136.525 56.515 0)
      (effects (font (size 1.27 1.27)) (justify left) hide)
    )
    (property "Height" "0.55" (id 5) (at 136.525 71.755 0)
      (effects (font (size 1.27 1.27)) (justify left) hide)
    )
    (property "Mouser Part Number" "863-NCP708MU330TAG" (id 6) (at 136.525 61.595 0)
      (effects (font (size 1.27 1.27)) (justify left) hide)
    )
    (property "Mouser Price/Stock" "https://www.mouser.co.uk/ProductDetail/ON-Semiconductor/NCP708MU330TAG?qs=tCMd4XlZ%2FiAK%2FL2%2FBzPAnw%3D%3D" (id 7) (at 136.525 64.135 0)
      (effects (font (size 1.27 1.27)) (justify left) hide)
    )
    (property "Manufacturer_Name" "ON Semiconductor" (id 8) (at 136.525 66.675 0)
      (effects (font (size 1.27 1.27)) (justify left) hide)
    )
    (property "Manufacturer_Part_Number" "NCP708MU330TAG" (id 9) (at 136.525 69.215 0)
      (effects (font (size 1.27 1.27)) (justify left) hide)
    )
    (pin "1" (uuid b2469fd9-5758-49e7-9d80-cca7411bf7d8))
    (pin "2" (uuid e7432e5f-b960-4e83-9b60-0dd8dd1534a2))
    (pin "3" (uuid 310857d2-8a93-43b1-b1a6-045d3847d65c))
    (pin "4" (uuid 32bb57c7-3448-4d5c-93f8-cc71539a600a))
    (pin "5" (uuid 48ec6e4d-c323-4b0d-9aef-026d1b6aee18))
    (pin "6" (uuid 27bc7ec1-5352-4f88-94b9-6ccc37b98850))
    (pin "7" (uuid 46655617-3c11-4ae5-84f3-818caf27fd6a))
  )

  (symbol (lib_id "Device:LED_Small") (at 146.685 172.466 0) (mirror y) (unit 1)
    (in_bom yes) (on_board yes)
    (uuid 1715c428-1bd6-488e-9252-ce44b4261afa)
    (property "Reference" "D4" (id 0) (at 146.685 168.91 0)
      (effects (font (size 1.4986 1.4986) bold italic))
    )
    (property "Value" "GREEN 2mA" (id 1) (at 146.685 166.243 0)
      (effects (font (size 0.9906 0.9906) bold italic))
    )
    (property "Footprint" "LED_SMD:LED_0805_2012Metric" (id 2) (at 146.685 172.466 90)
      (effects (font (size 1.27 1.27)) hide)
    )
    (property "Datasheet" "~" (id 3) (at 146.685 172.466 90)
      (effects (font (size 1.27 1.27)) hide)
    )
    (property "FARNELL" "2217981" (id 4) (at 146.685 172.466 0)
      (effects (font (size 0.9906 0.9906) bold italic) hide)
    )
    (property "FAB REF" "KPT-2012ZGC" (id 5) (at 146.685 164.592 0)
      (effects (font (size 0.9906 0.9906) bold italic))
    )
    (property "LCSC" "C598372" (id 6) (at 146.685 172.466 0)
      (effects (font (size 0.9906 0.9906) bold italic) hide)
    )
    (pin "1" (uuid e8b15e58-a98a-4fc8-b4e1-fed83ea21e68))
    (pin "2" (uuid 0a10db1c-9419-4139-8b13-15b27bc280da))
  )

  (symbol (lib_id "Device:C_Small") (at 124.841 180.721 0) (unit 1)
    (in_bom yes) (on_board yes)
    (uuid 3494a5d4-f0e3-42d7-af4f-565feabb3441)
    (property "Reference" "C51" (id 0) (at 125.476 178.816 0)
      (effects (font (size 1.4986 1.4986) bold italic) (justify left))
    )
    (property "Value" "4.7uF" (id 1) (at 125.476 182.626 0)
      (effects (font (size 0.9906 0.9906) bold italic) (justify left))
    )
    (property "Footprint" "Capacitor_SMD:C_0603_1608Metric" (id 2) (at 124.841 180.721 0)
      (effects (font (size 1.27 1.27)) hide)
    )
    (property "Datasheet" "~" (id 3) (at 124.841 180.721 0)
      (effects (font (size 1.27 1.27)) hide)
    )
    (property "Distributor" "https://fr.farnell.com/murata/grm188r61c475kaajd/condensateur-4-7-f-16v-10-x5r/dp/2611924" (id 4) (at -14.224 226.441 0)
      (effects (font (size 0.9906 0.9906) bold italic) (justify left top) hide)
    )
    (property "Manufacture Ref" "GRM188R61C475KAAJD" (id 5) (at -14.224 226.441 0)
      (effects (font (size 0.9906 0.9906) bold italic) (justify left top) hide)
    )
    (pin "1" (uuid 0974332f-e921-4d87-b826-63a89af3f9cb))
    (pin "2" (uuid f880aea9-451f-4584-b336-b6b83ae1fedc))
  )

  (symbol (lib_id "power:GND") (at 124.841 185.801 0) (unit 1)
    (in_bom yes) (on_board yes)
    (uuid 3a043c13-f448-410d-be9b-493be4483c65)
    (property "Reference" "#PWR0105" (id 0) (at 124.841 192.151 0)
      (effects (font (size 1.4986 1.4986) bold italic) (justify left) hide)
    )
    (property "Value" "GND" (id 1) (at 123.19 189.865 0)
      (effects (font (size 0.9906 0.9906) bold italic) (justify left))
    )
    (property "Footprint" "" (id 2) (at 124.841 185.801 0)
      (effects (font (size 0.9906 0.9906) bold italic) (justify left top) hide)
    )
    (property "Datasheet" "" (id 3) (at 124.841 185.801 0)
      (effects (font (size 0.9906 0.9906) bold italic) (justify left top) hide)
    )
    (pin "1" (uuid 5b49d2de-6405-4e02-aef8-4f9f67ad5e0d))
  )

  (symbol (lib_id "power:GND") (at 28.194 181.991 0) (unit 1)
    (in_bom yes) (on_board yes)
    (uuid aec3e402-58fc-42f2-8815-76dcc8eeb275)
    (property "Reference" "#PWR0103" (id 0) (at 28.194 188.341 0)
      (effects (font (size 1.4986 1.4986) bold italic) (justify left) hide)
    )
    (property "Value" "GND" (id 1) (at 26.67 185.928 0)
      (effects (font (size 0.9906 0.9906) bold italic) (justify left))
    )
    (property "Footprint" "" (id 2) (at 28.194 181.991 0)
      (effects (font (size 0.9906 0.9906) bold italic) (justify left top) hide)
    )
    (property "Datasheet" "" (id 3) (at 28.194 181.991 0)
      (effects (font (size 0.9906 0.9906) bold italic) (justify left top) hide)
    )
    (pin "1" (uuid c2818d69-4a08-4a84-8aa3-2ba9f61cf7f9))
  )

  (symbol (lib_id "Device:LED_Small") (at 94.869 177.546 0) (unit 1)
    (in_bom yes) (on_board yes)
    (uuid b457788f-e8f3-4ea5-95b1-ff988c759b9d)
    (property "Reference" "D3" (id 0) (at 94.869 173.99 0)
      (effects (font (size 1.4986 1.4986) bold italic))
    )
    (property "Value" "RED 2mA" (id 1) (at 94.996 179.959 0)
      (effects (font (size 0.9906 0.9906) bold italic))
    )
    (property "Footprint" "LED_SMD:LED_0805_2012Metric" (id 2) (at 94.869 177.546 90)
      (effects (font (size 1.27 1.27)) hide)
    )
    (property "Datasheet" "~" (id 3) (at 94.869 177.546 90)
      (effects (font (size 1.27 1.27)) hide)
    )
    (property "FARNELL" "2217981" (id 4) (at 94.869 177.546 0)
      (effects (font (size 0.9906 0.9906) bold italic) hide)
    )
    (property "FAB REF" "KPT-2012ZGC" (id 5) (at 94.869 181.737 0)
      (effects (font (size 0.9906 0.9906) bold italic))
    )
    (property "LCSC" "C598372" (id 6) (at 94.869 177.546 0)
      (effects (font (size 0.9906 0.9906) bold italic) hide)
    )
    (pin "1" (uuid 76f88457-13f9-489b-a5c5-c21dbe781851))
    (pin "2" (uuid 96e3d148-519f-41c2-a2ba-079deeb3ca03))
  )

  (symbol (lib_id "Device:R_Small") (at 134.366 172.466 90) (mirror x) (unit 1)
    (in_bom yes) (on_board yes)
    (uuid cd1be87a-20f0-4ba8-988c-20f82a519467)
    (property "Reference" "R29" (id 0) (at 134.366 170.053 90)
      (effects (font (size 1.4986 1.4986) bold italic))
    )
    (property "Value" "750" (id 1) (at 134.493 172.466 90)
      (effects (font (size 0.9906 0.9906) bold italic))
    )
    (property "Footprint" "Resistor_SMD:R_0603_1608Metric" (id 2) (at 134.366 172.466 0)
      (effects (font (size 1.27 1.27)) hide)
    )
    (property "Datasheet" "~" (id 3) (at 134.366 172.466 0)
      (effects (font (size 1.27 1.27)) hide)
    )
    (pin "1" (uuid 75dcd8a6-6b98-45e2-b9ae-1cf8740e1d0a))
    (pin "2" (uuid 3975ae03-4aa1-46cd-a852-27418e3b8669))
  )

  (symbol (lib_id "power:+5V") (at 28.194 166.116 0) (unit 1)
    (in_bom yes) (on_board yes)
    (uuid dbce408d-9842-45c9-bf00-ae10e12ea120)
    (property "Reference" "#PWR0104" (id 0) (at 28.194 169.926 0)
      (effects (font (size 1.4986 1.4986) bold italic) (justify left) hide)
    )
    (property "Value" "+5V" (id 1) (at 26.543 161.671 0)
      (effects (font (size 0.9906 0.9906) bold italic) (justify left))
    )
    (property "Footprint" "" (id 2) (at 28.194 166.116 0)
      (effects (font (size 0.9906 0.9906) bold italic) (justify left top) hide)
    )
    (property "Datasheet" "" (id 3) (at 28.194 166.116 0)
      (effects (font (size 0.9906 0.9906) bold italic) (justify left top) hide)
    )
    (pin "1" (uuid 2531c954-0265-4c9d-9990-4f275ec6a816))
  )

  (symbol (lib_id "izi-loadswitch:STMPS21xx") (at 70.104 175.006 0) (unit 1)
    (in_bom yes) (on_board yes)
    (uuid e45a6ce6-4902-4faa-b5fb-4cb546252ec9)
    (property "Reference" "U8" (id 0) (at 68.58 165.989 0)
      (effects (font (size 1.4986 1.4986) bold italic) (justify left))
    )
    (property "Value" "STMPS21xx" (id 1) (at 65.913 168.656 0)
      (effects (font (size 0.9906 0.9906) bold italic) (justify left))
    )
    (property "Footprint" "Package_TO_SOT_SMD:TSOT-23-5" (id 2) (at 70.104 175.006 0)
      (effects (font (size 0.9906 0.9906) bold italic) (justify left top) hide)
    )
    (property "Datasheet" "" (id 3) (at 70.104 175.006 0)
      (effects (font (size 0.9906 0.9906) bold italic) (justify left top) hide)
    )
    (pin "1" (uuid 02f2843c-5cfa-4ded-a49a-9b3d91bf1982))
    (pin "2" (uuid e0febb15-47a0-4772-82e0-854fdc095640))
    (pin "3" (uuid 992a9b9d-3cb6-43f7-b0d9-b3b3c5f0a199))
    (pin "4" (uuid 96686efd-c641-4ee3-94f9-5f19425fb4ef))
    (pin "5" (uuid b8e784cf-f29e-46f0-b511-c42d42c48506))
  )

  (symbol (lib_id "Device:R_Small") (at 103.124 177.546 270) (unit 1)
    (in_bom yes) (on_board yes)
    (uuid e648369d-5ea2-4614-92fa-1f4b6117d1e9)
    (property "Reference" "R28" (id 0) (at 100.965 175.26 90)
      (effects (font (size 1.4986 1.4986) bold italic) (justify left))
    )
    (property "Value" "750" (id 1) (at 101.727 177.673 90)
      (effects (font (size 0.9906 0.9906) bold italic) (justify left))
    )
    (property "Footprint" "Resistor_SMD:R_0603_1608Metric" (id 2) (at 103.124 177.546 0)
      (effects (font (size 1.27 1.27)) hide)
    )
    (property "Datasheet" "~" (id 3) (at 103.124 177.546 0)
      (effects (font (size 1.27 1.27)) hide)
    )
    (pin "1" (uuid 89bf61cb-2e32-4e1a-910c-616952b5e606))
    (pin "2" (uuid 450b5479-3613-4373-8636-0f88871e89b3))
  )

  (symbol (lib_id "power:+3V3") (at 109.093 177.546 270) (unit 1)
    (in_bom yes) (on_board yes)
    (uuid eabad4c5-c072-4979-927b-ae21af9abff3)
    (property "Reference" "#PWR0102" (id 0) (at 105.283 177.546 0)
      (effects (font (size 1.4986 1.4986) bold italic) (justify left) hide)
    )
    (property "Value" "+3V3" (id 1) (at 112.014 177.546 90)
      (effects (font (size 0.9906 0.9906) bold italic) (justify left))
    )
    (property "Footprint" "" (id 2) (at 109.093 177.546 0)
      (effects (font (size 0.9906 0.9906) bold italic) (justify left top) hide)
    )
    (property "Datasheet" "" (id 3) (at 109.093 177.546 0)
      (effects (font (size 0.9906 0.9906) bold italic) (justify left top) hide)
    )
    (pin "1" (uuid 3657f723-5e1a-4852-a2aa-2678bfce1351))
  )

  (symbol (lib_id "Device:C_Small") (at 28.194 175.006 0) (unit 1)
    (in_bom yes) (on_board yes)
    (uuid f881e136-09a6-42ce-a1e9-2639577875c9)
    (property "Reference" "C50" (id 0) (at 28.829 173.101 0)
      (effects (font (size 1.4986 1.4986) bold italic) (justify left))
    )
    (property "Value" "1uF" (id 1) (at 28.829 176.911 0)
      (effects (font (size 0.9906 0.9906) bold italic) (justify left))
    )
    (property "Footprint" "Capacitor_SMD:C_0603_1608Metric" (id 2) (at 28.194 175.006 0)
      (effects (font (size 1.27 1.27)) hide)
    )
    (property "Datasheet" "~" (id 3) (at 28.194 175.006 0)
      (effects (font (size 1.27 1.27)) hide)
    )
    (property "Distributor" "https://fr.farnell.com/avx/0603yd105kat2a/condensateur-1-f-16v-10-x5r-0603/dp/1327680" (id 4) (at -27.051 215.011 0)
      (effects (font (size 0.9906 0.9906) bold italic) (justify left top) hide)
    )
    (property "Manufacture Ref" "603YD105KAT2A" (id 5) (at -27.051 215.011 0)
      (effects (font (size 0.9906 0.9906) bold italic) (justify left top) hide)
    )
    (pin "1" (uuid 634ac8ca-d9e2-47bc-a595-53c8c73b29c8))
    (pin "2" (uuid 9e96f2d8-2e61-4fcc-a505-28a52f66c657))
  )

  (symbol (lib_id "power:GND") (at 154.686 172.466 90) (unit 1)
    (in_bom yes) (on_board yes)
    (uuid fb256002-0e04-44a1-bda0-9b9952f7e4db)
    (property "Reference" "#PWR0101" (id 0) (at 161.036 172.466 0)
      (effects (font (size 1.4986 1.4986) bold italic) (justify left) hide)
    )
    (property "Value" "GND" (id 1) (at 161.163 172.466 90)
      (effects (font (size 0.9906 0.9906) bold italic) (justify left))
    )
    (property "Footprint" "" (id 2) (at 154.686 172.466 0)
      (effects (font (size 0.9906 0.9906) bold italic) (justify left top) hide)
    )
    (property "Datasheet" "" (id 3) (at 154.686 172.466 0)
      (effects (font (size 0.9906 0.9906) bold italic) (justify left top) hide)
    )
    (pin "1" (uuid 1b8e4bca-c71a-4074-b39f-24f6e2728ee7))
  )
)
